main/main_tb.vcd
$date
	Sun Nov 24 22:24:41 2024
$end
$version
	Icarus Verilog
$end
$timescale
	1ps
$end
$scope module main_tb $end
$var parameter 32 ! DURATION $end
$var reg 1 " clk $end
$var reg 1 # reset $end
$scope module UUT $end
$var wire 1 " clk $end
$var wire 1 # reset $end
$var wire 32 $ rd2 [31:0] $end
$var wire 32 % pc [31:0] $end
$var wire 32 & instruccion [31:0] $end
$var wire 32 ' ReadData [31:0] $end
$var wire 1 ( MemWrite $end
$var wire 32 ) ALUResult [31:0] $end
$scope module Procesador $end
$var wire 1 " clk $end
$var wire 1 # reset $end
$var wire 1 * zero $end
$var wire 1 + regWrite $end
$var wire 32 , rd2 [31:0] $end
$var wire 1 - pcSrc $end
$var wire 32 . pc [31:0] $end
$var wire 32 / instruccion [31:0] $end
$var wire 2 0 immSrc [1:0] $end
$var wire 1 1 branch $end
$var wire 2 2 ResultSrc [1:0] $end
$var wire 32 3 ReadData [31:0] $end
$var wire 1 ( MemWrite $end
$var wire 1 4 ALUsrc $end
$var wire 32 5 ALUResult [31:0] $end
$var wire 3 6 ALUControl [2:0] $end
$scope module u_datapath $end
$var wire 1 " clk $end
$var wire 1 # reset $end
$var wire 1 * zero $end
$var wire 32 7 srcB [31:0] $end
$var wire 32 8 rd2 [31:0] $end
$var wire 32 9 rd1 [31:0] $end
$var wire 32 : pcNext [31:0] $end
$var wire 32 ; pc [31:0] $end
$var wire 32 < instruccion [31:0] $end
$var wire 2 = immSrc [1:0] $end
$var wire 32 > immExt [31:0] $end
$var wire 32 ? Result_mux1 [31:0] $end
$var wire 2 @ ResultSrc [1:0] $end
$var wire 32 A Result [31:0] $end
$var wire 1 + RegWrite $end
$var wire 32 B ReadData [31:0] $end
$var wire 32 C PCTarget [31:0] $end
$var wire 1 - PCSrc $end
$var wire 32 D PCPlus4 [31:0] $end
$var wire 1 ( MemWrite $end
$var wire 1 4 ALUsrc $end
$var wire 32 E ALUResult [31:0] $end
$var wire 3 F ALUControl [2:0] $end
$scope module adder_contador_programa $end
$var wire 32 G op2 [31:0] $end
$var wire 32 H op1 [31:0] $end
$var reg 32 I res [31:0] $end
$upscope $end
$scope module adder_ext $end
$var wire 32 J op2 [31:0] $end
$var wire 32 K op1 [31:0] $end
$var reg 32 L res [31:0] $end
$upscope $end
$scope module alu $end
$var wire 32 M srcB [31:0] $end
$var wire 32 N srcA [31:0] $end
$var wire 3 O ALUControl [2:0] $end
$var reg 32 P result [31:0] $end
$var reg 1 * zero $end
$upscope $end
$scope module banco_registros $end
$var wire 5 Q a1 [4:0] $end
$var wire 5 R a2 [4:0] $end
$var wire 5 S a3 [4:0] $end
$var wire 1 " clk $end
$var wire 1 + we $end
$var wire 32 T wd3 [31:0] $end
$var wire 32 U rd2 [31:0] $end
$var wire 32 V rd1 [31:0] $end
$upscope $end
$scope module contador_programa $end
$var wire 1 " clk $end
$var wire 1 # reset $end
$var wire 32 W pcNext [31:0] $end
$var reg 32 X pc [31:0] $end
$upscope $end
$scope module ext $end
$var wire 25 Y inm [24:0] $end
$var wire 2 Z src [1:0] $end
$var reg 32 [ inmExt [31:0] $end
$upscope $end
$scope module mux_alu $end
$var wire 32 \ e1 [31:0] $end
$var wire 32 ] e2 [31:0] $end
$var wire 1 4 sel $end
$var reg 32 ^ salMux [31:0] $end
$upscope $end
$scope module mux_contador_programa $end
$var wire 32 _ e1 [31:0] $end
$var wire 32 ` e2 [31:0] $end
$var wire 1 - sel $end
$var reg 32 a salMux [31:0] $end
$upscope $end
$scope module mux_memoria_datos_1 $end
$var wire 32 b e1 [31:0] $end
$var wire 1 c sel $end
$var wire 32 d e2 [31:0] $end
$var reg 32 e salMux [31:0] $end
$upscope $end
$scope module mux_memoria_datos_2 $end
$var wire 32 f e1 [31:0] $end
$var wire 32 g e2 [31:0] $end
$var wire 1 h sel $end
$var reg 32 i salMux [31:0] $end
$upscope $end
$upscope $end
$scope module unidad_control $end
$var wire 1 - PCSrc $end
$var wire 3 j f3 [2:0] $end
$var wire 7 k f7 [6:0] $end
$var wire 7 l op [6:0] $end
$var wire 1 * zero $end
$var wire 1 + regWrite $end
$var wire 1 ( memWrite $end
$var wire 1 m jump $end
$var wire 2 n immSrc [1:0] $end
$var wire 1 1 branch $end
$var wire 1 4 aluSrc $end
$var wire 2 o ResultSrc [1:0] $end
$var wire 3 p ALUcontrol [2:0] $end
$var wire 2 q ALUOp_wire [1:0] $end
$scope module alu_decoder $end
$var wire 3 r f3 [2:0] $end
$var wire 7 s f7 [6:0] $end
$var wire 7 t op [6:0] $end
$var wire 2 u aluOp [1:0] $end
$var reg 3 v aluControl [2:0] $end
$upscope $end
$scope module main_decoder $end
$var wire 7 w op [6:0] $end
$var reg 2 x ALUOp [1:0] $end
$var reg 1 4 ALUSrc $end
$var reg 1 m Jump $end
$var reg 2 y ResultSrc [1:0] $end
$var reg 1 1 branch $end
$var reg 2 z immSrc [1:0] $end
$var reg 1 ( memWrite $end
$var reg 1 + regWrite $end
$upscope $end
$upscope $end
$upscope $end
$scope module memoria_datos $end
$var wire 5 { addresDM [4:0] $end
$var wire 1 " clk $end
$var wire 32 | rd [31:0] $end
$var wire 32 } wd [31:0] $end
$var wire 1 ( we $end
$upscope $end
$scope module memoria_instruccion $end
$var wire 5 ~ addresIM [4:0] $end
$var wire 32 !" inst [31:0] $end
$upscope $end
$upscope $end
$upscope $end
$enddefinitions $end
$comment Show the parameter values. $end
$dumpall
b101110111000 !
$end
#0
$dumpvars
b1100000000010000010011 !"
b0 ~
bx }
bx |
b0 {
b0 z
b0 y
b10 x
b10011 w
b0 v
b10 u
b10011 t
b0 s
b0 r
b10 q
b0 p
b0 o
b0 n
0m
b10011 l
b0 k
b0 j
b11 i
0h
b100 g
b11 f
b11 e
bx d
0c
b11 b
b100 a
b11 `
b100 _
b11 ^
b11 ]
bx \
b11 [
b0 Z
b110000000001000 Y
b0 X
b100 W
b0 V
bx U
b11 T
b1000 S
b11 R
b0 Q
b11 P
b0 O
b0 N
b11 M
b11 L
b11 K
b0 J
b100 I
b0 H
b100 G
b0 F
b11 E
b100 D
b11 C
bx B
b11 A
b0 @
b11 ?
b11 >
b0 =
b1100000000010000010011 <
b0 ;
b100 :
b0 9
bx 8
b11 7
b0 6
b11 5
14
bx 3
b0 2
01
b0 0
b1100000000010000010011 /
b0 .
0-
bx ,
1+
0*
b11 )
0(
bx '
b1100000000010000010011 &
b0 %
bx $
1#
0"
$end
#500
1"
#1000
0"
0#
#1500
b1 A
b1 T
b1 i
b1 ?
b1 e
b1 f
b1 )
b1 5
b1 E
b1 P
b1 b
b1 7
b1 M
b1 ^
b1 >
b1 K
b1 [
b1 ]
b10000000001001 Y
b1001 S
b1 R
b1000 :
b1000 W
b1000 a
b100000000010010010011 &
b100000000010010010011 /
b100000000010010010011 <
b100000000010010010011 !"
b1 ~
b1000 D
b1000 I
b1000 _
b1000 g
b101 C
b101 L
b101 `
b100 %
b100 .
b100 ;
b100 H
b100 J
b100 X
1"
#2000
0"
#2500
b10000 A
b10000 T
b10000 i
b10000 ?
b10000 e
b10000 f
b100 {
b10000 )
b10000 5
b10000 E
b10000 P
b10000 b
b10000 7
b10000 M
b10000 ^
b10000 >
b10000 K
b10000 [
b10000 ]
b100000000000010010 Y
b10010 S
b10000 R
b1100 :
b1100 W
b1100 a
b1000000000000100100010011 &
b1000000000000100100010011 /
b1000000000000100100010011 <
b1000000000000100100010011 !"
b10 ~
b1100 D
b1100 I
b1100 _
b1100 g
b11000 C
b11000 L
b11000 `
b1000 %
b1000 .
b1000 ;
b1000 H
b1000 J
b1000 X
1"
#3000
0"
#3500
b11 A
b11 T
b11 i
b11 ?
b11 e
b11 f
b0 {
b11 )
b11 5
b11 E
b11 P
b11 b
b1 7
b1 M
b1 ^
b1001 >
b1001 K
b1001 [
b1001 ]
b1 $
b1 ,
b1 8
b1 U
b1 \
b1 }
b11 9
b11 N
b11 V
b11 6
b11 F
b11 O
b11 p
b11 v
04
b10010100011000101 Y
b101 S
b1001 R
b1000 Q
b110 j
b110 r
b110011 l
b110011 t
b110011 w
b10000 :
b10000 W
b10000 a
b100101000110001010110011 &
b100101000110001010110011 /
b100101000110001010110011 <
b100101000110001010110011 !"
b11 ~
b10000 D
b10000 I
b10000 _
b10000 g
b10101 C
b10101 L
b10101 `
b1100 %
b1100 .
b1100 ;
b1100 H
b1100 J
b1100 X
1"
#4000
0"
#4500
b1 A
b1 T
b1 i
b1 ?
b1 e
b1 f
b1 )
b1 5
b1 E
b1 P
b1 b
b10 6
b10 F
b10 O
b10 p
b10 v
b10010100011100110 Y
b110 S
b111 j
b111 r
b10100 :
b10100 W
b10100 a
b100101000111001100110011 &
b100101000111001100110011 /
b100101000111001100110011 <
b100101000111001100110011 !"
b100 ~
b10100 D
b10100 I
b10100 _
b10100 g
b11001 C
b11001 L
b11001 `
b10000 %
b10000 .
b10000 ;
b10000 H
b10000 J
b10000 X
1"
#5000
0"
#5500
b100 A
b100 T
b100 i
b100 ?
b100 e
b100 f
b1 {
b100 )
b100 5
b100 E
b100 P
b100 b
b0 6
b0 F
b0 O
b0 p
b0 v
b10010100000000111 Y
b111 S
b0 j
b0 r
b11000 :
b11000 W
b11000 a
b100101000000001110110011 &
b100101000000001110110011 /
b100101000000001110110011 <
b100101000000001110110011 !"
b101 ~
b11000 D
b11000 I
b11000 _
b11000 g
b11101 C
b11101 L
b11101 `
b10100 %
b10100 .
b10100 ;
b10100 H
b10100 J
b10100 X
1"
#6000
0"
#6500
b10 A
b10 T
b10 i
b10 ?
b10 e
b10 f
b0 {
b10 )
b10 5
b10 E
b10 P
b10 b
b10000001001 >
b10000001001 K
b10000001001 [
b10000001001 ]
b1 6
b1 F
b1 O
b1 p
b1 v
b100000010010100000011100 Y
b11100 S
b100000 k
b100000 s
b11100 :
b11100 W
b11100 a
b1000000100101000000111000110011 &
b1000000100101000000111000110011 /
b1000000100101000000111000110011 <
b1000000100101000000111000110011 !"
b110 ~
b11100 D
b11100 I
b11100 _
b11100 g
b10000100001 C
b10000100001 L
b10000100001 `
b11000 %
b11000 .
b11000 ;
b11000 H
b11000 J
b11000 X
1"
#7000
0"
#7500
b11111 {
b11111111111111111111111111111110 A
b11111111111111111111111111111110 T
b11111111111111111111111111111110 i
b11111111111111111111111111111110 ?
b11111111111111111111111111111110 e
b11111111111111111111111111111110 f
b11 7
b11 M
b11 ^
0*
b11111111111111111111111111111110 )
b11111111111111111111111111111110 5
b11111111111111111111111111111110 E
b11111111111111111111111111111110 P
b11111111111111111111111111111110 b
b10000001000 >
b10000001000 K
b10000001000 [
b10000001000 ]
b11 $
b11 ,
b11 8
b11 U
b11 \
b11 }
b1 9
b1 N
b1 V
b100000010000100100011101 Y
b11101 S
b1000 R
b1001 Q
b100000 :
b100000 W
b100000 a
b1000000100001001000111010110011 &
b1000000100001001000111010110011 /
b1000000100001001000111010110011 <
b1000000100001001000111010110011 !"
b111 ~
b100000 D
b100000 I
b100000 _
b100000 g
b10000100100 C
b10000100100 L
b10000100100 `
b11100 %
b11100 .
b11100 ;
b11100 H
b11100 J
b11100 X
1"
#8000
0"
#8500
b0 A
b0 T
b0 i
b0 ?
b0 e
b0 f
b0 {
b1 7
b1 M
b1 ^
1*
b0 )
b0 5
b0 E
b0 P
b0 b
b1001 >
b1001 K
b1001 [
b1001 ]
b1 $
b1 ,
b1 8
b1 U
b1 \
b1 }
b11 9
b11 N
b11 V
b101 6
b101 F
b101 O
b101 p
b101 v
b10010100001011110 Y
b11110 S
b1001 R
b1000 Q
b0 k
b0 s
b10 j
b10 r
b100100 :
b100100 W
b100100 a
b100101000010111100110011 &
b100101000010111100110011 /
b100101000010111100110011 <
b100101000010111100110011 !"
b1000 ~
b100100 D
b100100 I
b100100 _
b100100 g
b101001 C
b101001 L
b101001 `
b100000 %
b100000 .
b100000 ;
b100000 H
b100000 J
b100000 X
1"
#9000
0"
#9500
b1 A
b1 T
b1 i
b1 ?
b1 e
b1 f
0*
b1 )
b1 5
b1 E
b1 P
b1 b
b11 7
b11 M
b11 ^
b1000 >
b1000 K
b1000 [
b1000 ]
b11 $
b11 ,
b11 8
b11 U
b11 \
b11 }
b1 9
b1 N
b1 V
b10000100101011111 Y
b11111 S
b1000 R
b1001 Q
b101000 :
b101000 W
b101000 a
b100001001010111110110011 &
b100001001010111110110011 /
b100001001010111110110011 <
b100001001010111110110011 !"
b1001 ~
b101000 D
b101000 I
b101000 _
b101000 g
b101100 C
b101100 L
b101100 `
b100100 %
b100100 .
b100100 ;
b100100 H
b100100 J
b100100 X
1"
#10000
0"
#10500
b0 A
b0 T
b0 i
b0 ?
b0 e
b0 f
1*
b0 )
b0 5
b0 E
b0 P
b0 b
b11111111111111111111111111111110 7
b11111111111111111111111111111110 M
b11111111111111111111111111111110 ^
b11101 >
b11101 K
b11101 [
b11101 ]
b11111111111111111111111111111110 $
b11111111111111111111111111111110 ,
b11111111111111111111111111111110 8
b11111111111111111111111111111110 U
b11111111111111111111111111111110 \
b11111111111111111111111111111110 }
b111010100101011111 Y
b11101 R
b101100 :
b101100 W
b101100 a
b1110101001010111110110011 &
b1110101001010111110110011 /
b1110101001010111110110011 <
b1110101001010111110110011 !"
b1010 ~
b101100 D
b101100 I
b101100 _
b101100 g
b1000101 C
b1000101 L
b1000101 `
b101000 %
b101000 .
b101000 ;
b101000 H
b101000 J
b101000 X
1"
#11000
0"
#11500
b1 A
b1 T
b1 i
b1 ?
b1 e
b1 f
0*
b1 )
b1 5
b1 E
b1 P
b1 b
b1 7
b1 M
b1 ^
b1 >
b1 K
b1 [
b1 ]
bx $
bx ,
bx 8
bx U
bx \
bx }
b0 9
b0 N
b0 V
b0 6
b0 F
b0 O
b0 p
b0 v
14
b10000000000101 Y
b101 S
b1 R
b0 Q
b0 j
b0 r
b10011 l
b10011 t
b10011 w
b110000 :
b110000 W
b110000 a
b100000000001010010011 &
b100000000001010010011 /
b100000000001010010011 <
b100000000001010010011 !"
b1011 ~
b110000 D
b110000 I
b110000 _
b110000 g
b101101 C
b101101 L
b101101 `
b101100 %
b101100 .
b101100 ;
b101100 H
b101100 J
b101100 X
1"
#12000
0"
#12500
b0 A
b0 T
b0 i
b0 ?
b0 e
b0 f
1*
b0 )
b0 5
b0 E
b0 P
b0 b
b0 7
b0 M
b0 ^
b0 >
b0 K
b0 [
b0 ]
b0 $
b0 ,
b0 8
b0 U
b0 \
b0 }
b110 Y
b110 S
b0 R
b110100 :
b110100 W
b110100 a
b1100010011 &
b1100010011 /
b1100010011 <
b1100010011 !"
b1100 ~
b110100 D
b110100 I
b110100 _
b110100 g
b110000 C
b110000 L
b110000 `
b110000 %
b110000 .
b110000 ;
b110000 H
b110000 J
b110000 X
1"
#13000
0"
#13500
b11111111111111111111111111110001 A
b11111111111111111111111111110001 T
b11111111111111111111111111110001 i
b11111111111111111111111111110001 ?
b11111111111111111111111111110001 e
b11111111111111111111111111110001 f
b11100 {
0-
0*
b11111111111111111111111111110001 )
b11111111111111111111111111110001 5
b11111111111111111111111111110001 E
b11111111111111111111111111110001 P
b11111111111111111111111111110001 b
b1 6
b1 F
b1 O
b1 p
b1 v
b10000 7
b10000 M
b10000 ^
b10000 >
b10000 K
b10000 [
b10000 ]
b10000 $
b10000 ,
b10000 8
b10000 U
b10000 \
b10000 }
b1 9
b1 N
b1 V
b1 q
b1 u
b1 x
11
04
b10 0
b10 =
b10 Z
b10 n
b10 z
0+
b100100010100010000 Y
b10000 S
b10010 R
b101 Q
b1100011 l
b1100011 t
b1100011 w
b111000 :
b111000 W
b111000 a
b1001000101000100001100011 &
b1001000101000100001100011 /
b1001000101000100001100011 <
b1001000101000100001100011 !"
b1101 ~
b111000 D
b111000 I
b111000 _
b111000 g
b1000100 C
b1000100 L
b1000100 `
b110100 %
b110100 .
b110100 ;
b110100 H
b110100 J
b110100 X
1"
#14000
0"
#14500
b10 A
b10 T
b10 i
b10 ?
b10 e
b10 f
b0 {
b10 )
b10 5
b10 E
b10 P
b10 b
b1 7
b1 M
b1 ^
b0 6
b0 F
b0 O
b0 p
b0 v
b101 >
b101 K
b101 [
b101 ]
b1 $
b1 ,
b1 8
b1 U
b1 \
b1 }
b10 q
b10 u
b10 x
01
b0 0
b0 =
b0 Z
b0 n
b0 z
1+
b1010010100000101 Y
b101 S
b101 R
b110011 l
b110011 t
b110011 w
b111100 :
b111100 W
b111100 a
b10100101000001010110011 &
b10100101000001010110011 /
b10100101000001010110011 <
b10100101000001010110011 !"
b1110 ~
b111100 D
b111100 I
b111100 _
b111100 g
b111101 C
b111101 L
b111101 `
b111000 %
b111000 .
b111000 ;
b111000 H
b111000 J
b111000 X
1"
#15000
0"
#15500
b1 A
b1 T
b1 i
b1 ?
b1 e
b1 f
b0 {
b1 >
b1 K
b1 [
b1 ]
14
b1 )
b1 5
b1 E
b1 P
b1 b
b1 7
b1 M
b1 ^
b10011000000110 Y
b110 S
b1 R
b110 Q
b10011 l
b10011 t
b10011 w
b1000000 :
b1000000 W
b1000000 a
b0 9
b0 N
b0 V
bx $
bx ,
bx 8
bx U
bx \
bx }
b100110000001100010011 &
b100110000001100010011 /
b100110000001100010011 <
b100110000001100010011 !"
b1111 ~
b1000000 D
b1000000 I
b1000000 _
b1000000 g
b111101 C
b111101 L
b111101 `
b111100 %
b111100 .
b111100 ;
b111100 H
b111100 J
b111100 X
1"
#16000
0"
#16500
b1000100 A
b1000100 T
b1000100 i
1*
1-
1h
bx 7
bx M
bx ^
b0 ?
b0 e
b0 f
b11111111111111111111111111110100 >
b11111111111111111111111111110100 K
b11111111111111111111111111110100 [
b11111111111111111111111111110100 ]
b111 6
b111 F
b111 O
b111 p
b111 v
1m
bx q
bx u
bx x
b10 2
b10 @
b10 o
b10 y
04
b11 0
b11 =
b11 Z
b11 n
b11 z
b0 )
b0 5
b0 E
b0 P
b0 b
b1111111101011111111100000 Y
b0 S
b10101 R
b11111 Q
b1111111 k
b1111111 s
b111 j
b111 r
b1101111 l
b1101111 t
b1101111 w
b110100 :
b110100 W
b110100 a
b0 9
b0 N
b0 V
b11111111010111111111000001101111 &
b11111111010111111111000001101111 /
b11111111010111111111000001101111 <
b11111111010111111111000001101111 !"
b10000 ~
b1000100 D
b1000100 I
b1000100 _
b1000100 g
b110100 C
b110100 L
b110100 `
b1000000 %
b1000000 .
b1000000 ;
b1000000 H
b1000000 J
b1000000 X
1"
#17000
0"
#17500
0-
b11111111111111111111111111110010 ?
b11111111111111111111111111110010 e
b11111111111111111111111111110010 f
b11100 {
b10000 7
b10000 M
b10000 ^
0*
b11111111111111111111111111110010 )
b11111111111111111111111111110010 5
b11111111111111111111111111110010 E
b11111111111111111111111111110010 P
b11111111111111111111111111110010 b
0h
b10000 >
b10000 K
b10000 [
b10000 ]
b10000 $
b10000 ,
b10000 8
b10000 U
b10000 \
b10000 }
b10 9
b10 N
b10 V
b1 6
b1 F
b1 O
b1 p
b1 v
0m
b1 q
b1 u
b1 x
11
b0 2
b0 @
b0 o
b0 y
b10 0
b10 =
b10 Z
b10 n
b10 z
0+
b100100010100010000 Y
b10000 S
b10010 R
b101 Q
b0 k
b0 s
b0 j
b0 r
b1100011 l
b1100011 t
b1100011 w
b11111111111111111111111111110010 A
b11111111111111111111111111110010 T
b11111111111111111111111111110010 i
b111000 :
b111000 W
b111000 a
b1001000101000100001100011 &
b1001000101000100001100011 /
b1001000101000100001100011 <
b1001000101000100001100011 !"
b1101 ~
b111000 D
b111000 I
b111000 _
b111000 g
b1000100 C
b1000100 L
b1000100 `
b110100 %
b110100 .
b110100 ;
b110100 H
b110100 J
b110100 X
1"
#18000
0"
#18500
b100 A
b100 T
b100 i
b100 ?
b100 e
b100 f
b1 {
b100 )
b100 5
b100 E
b100 P
b100 b
b10 7
b10 M
b10 ^
b0 6
b0 F
b0 O
b0 p
b0 v
b101 >
b101 K
b101 [
b101 ]
b10 $
b10 ,
b10 8
b10 U
b10 \
b10 }
b10 q
b10 u
b10 x
01
b0 0
b0 =
b0 Z
b0 n
b0 z
1+
b1010010100000101 Y
b101 S
b101 R
b110011 l
b110011 t
b110011 w
b111100 :
b111100 W
b111100 a
b10100101000001010110011 &
b10100101000001010110011 /
b10100101000001010110011 <
b10100101000001010110011 !"
b1110 ~
b111100 D
b111100 I
b111100 _
b111100 g
b111101 C
b111101 L
b111101 `
b111000 %
b111000 .
b111000 ;
b111000 H
b111000 J
b111000 X
1"
#19000
0"
#19500
b10 A
b10 T
b10 i
b10 ?
b10 e
b10 f
b0 {
b1 >
b1 K
b1 [
b1 ]
14
b10 )
b10 5
b10 E
b10 P
b10 b
b1 7
b1 M
b1 ^
b10011000000110 Y
b110 S
b1 R
b110 Q
b10011 l
b10011 t
b10011 w
b1000000 :
b1000000 W
b1000000 a
b1 9
b1 N
b1 V
bx $
bx ,
bx 8
bx U
bx \
bx }
b100110000001100010011 &
b100110000001100010011 /
b100110000001100010011 <
b100110000001100010011 !"
b1111 ~
b1000000 D
b1000000 I
b1000000 _
b1000000 g
b111101 C
b111101 L
b111101 `
b111100 %
b111100 .
b111100 ;
b111100 H
b111100 J
b111100 X
1"
#20000
0"
#20500
b1000100 A
b1000100 T
b1000100 i
1*
1-
1h
bx 7
bx M
bx ^
b0 ?
b0 e
b0 f
b11111111111111111111111111110100 >
b11111111111111111111111111110100 K
b11111111111111111111111111110100 [
b11111111111111111111111111110100 ]
b111 6
b111 F
b111 O
b111 p
b111 v
1m
bx q
bx u
bx x
b10 2
b10 @
b10 o
b10 y
04
b11 0
b11 =
b11 Z
b11 n
b11 z
b0 )
b0 5
b0 E
b0 P
b0 b
b1111111101011111111100000 Y
b0 S
b10101 R
b11111 Q
b1111111 k
b1111111 s
b111 j
b111 r
b1101111 l
b1101111 t
b1101111 w
b110100 :
b110100 W
b110100 a
b0 9
b0 N
b0 V
b11111111010111111111000001101111 &
b11111111010111111111000001101111 /
b11111111010111111111000001101111 <
b11111111010111111111000001101111 !"
b10000 ~
b1000100 D
b1000100 I
b1000100 _
b1000100 g
b110100 C
b110100 L
b110100 `
b1000000 %
b1000000 .
b1000000 ;
b1000000 H
b1000000 J
b1000000 X
1"
#21000
0"
#21500
0-
b11111111111111111111111111110100 ?
b11111111111111111111111111110100 e
b11111111111111111111111111110100 f
b11101 {
b10000 7
b10000 M
b10000 ^
0*
b11111111111111111111111111110100 )
b11111111111111111111111111110100 5
b11111111111111111111111111110100 E
b11111111111111111111111111110100 P
b11111111111111111111111111110100 b
0h
b10000 >
b10000 K
b10000 [
b10000 ]
b10000 $
b10000 ,
b10000 8
b10000 U
b10000 \
b10000 }
b100 9
b100 N
b100 V
b1 6
b1 F
b1 O
b1 p
b1 v
0m
b1 q
b1 u
b1 x
11
b0 2
b0 @
b0 o
b0 y
b10 0
b10 =
b10 Z
b10 n
b10 z
0+
b100100010100010000 Y
b10000 S
b10010 R
b101 Q
b0 k
b0 s
b0 j
b0 r
b1100011 l
b1100011 t
b1100011 w
b11111111111111111111111111110100 A
b11111111111111111111111111110100 T
b11111111111111111111111111110100 i
b111000 :
b111000 W
b111000 a
b1001000101000100001100011 &
b1001000101000100001100011 /
b1001000101000100001100011 <
b1001000101000100001100011 !"
b1101 ~
b111000 D
b111000 I
b111000 _
b111000 g
b1000100 C
b1000100 L
b1000100 `
b110100 %
b110100 .
b110100 ;
b110100 H
b110100 J
b110100 X
1"
#22000
0"
#22500
b1000 A
b1000 T
b1000 i
b1000 ?
b1000 e
b1000 f
b10 {
b1000 )
b1000 5
b1000 E
b1000 P
b1000 b
b100 7
b100 M
b100 ^
b0 6
b0 F
b0 O
b0 p
b0 v
b101 >
b101 K
b101 [
b101 ]
b100 $
b100 ,
b100 8
b100 U
b100 \
b100 }
b10 q
b10 u
b10 x
01
b0 0
b0 =
b0 Z
b0 n
b0 z
1+
b1010010100000101 Y
b101 S
b101 R
b110011 l
b110011 t
b110011 w
b111100 :
b111100 W
b111100 a
b10100101000001010110011 &
b10100101000001010110011 /
b10100101000001010110011 <
b10100101000001010110011 !"
b1110 ~
b111100 D
b111100 I
b111100 _
b111100 g
b111101 C
b111101 L
b111101 `
b111000 %
b111000 .
b111000 ;
b111000 H
b111000 J
b111000 X
1"
#23000
0"
#23500
b11 A
b11 T
b11 i
b11 ?
b11 e
b11 f
b0 {
b1 >
b1 K
b1 [
b1 ]
14
b11 )
b11 5
b11 E
b11 P
b11 b
b1 7
b1 M
b1 ^
b10011000000110 Y
b110 S
b1 R
b110 Q
b10011 l
b10011 t
b10011 w
b1000000 :
b1000000 W
b1000000 a
b10 9
b10 N
b10 V
bx $
bx ,
bx 8
bx U
bx \
bx }
b100110000001100010011 &
b100110000001100010011 /
b100110000001100010011 <
b100110000001100010011 !"
b1111 ~
b1000000 D
b1000000 I
b1000000 _
b1000000 g
b111101 C
b111101 L
b111101 `
b111100 %
b111100 .
b111100 ;
b111100 H
b111100 J
b111100 X
1"
#24000
0"
#24500
b1000100 A
b1000100 T
b1000100 i
1*
1-
1h
bx 7
bx M
bx ^
b0 ?
b0 e
b0 f
b0 {
b11111111111111111111111111110100 >
b11111111111111111111111111110100 K
b11111111111111111111111111110100 [
b11111111111111111111111111110100 ]
b111 6
b111 F
b111 O
b111 p
b111 v
1m
bx q
bx u
bx x
b10 2
b10 @
b10 o
b10 y
04
b11 0
b11 =
b11 Z
b11 n
b11 z
b0 )
b0 5
b0 E
b0 P
b0 b
b1111111101011111111100000 Y
b0 S
b10101 R
b11111 Q
b1111111 k
b1111111 s
b111 j
b111 r
b1101111 l
b1101111 t
b1101111 w
b110100 :
b110100 W
b110100 a
b0 9
b0 N
b0 V
b11111111010111111111000001101111 &
b11111111010111111111000001101111 /
b11111111010111111111000001101111 <
b11111111010111111111000001101111 !"
b10000 ~
b1000100 D
b1000100 I
b1000100 _
b1000100 g
b110100 C
b110100 L
b110100 `
b1000000 %
b1000000 .
b1000000 ;
b1000000 H
b1000000 J
b1000000 X
1"
#25000
0"
#25500
0-
b11111111111111111111111111111000 ?
b11111111111111111111111111111000 e
b11111111111111111111111111111000 f
b11110 {
b10000 7
b10000 M
b10000 ^
0*
b11111111111111111111111111111000 )
b11111111111111111111111111111000 5
b11111111111111111111111111111000 E
b11111111111111111111111111111000 P
b11111111111111111111111111111000 b
0h
b10000 >
b10000 K
b10000 [
b10000 ]
b10000 $
b10000 ,
b10000 8
b10000 U
b10000 \
b10000 }
b1000 9
b1000 N
b1000 V
b1 6
b1 F
b1 O
b1 p
b1 v
0m
b1 q
b1 u
b1 x
11
b0 2
b0 @
b0 o
b0 y
b10 0
b10 =
b10 Z
b10 n
b10 z
0+
b100100010100010000 Y
b10000 S
b10010 R
b101 Q
b0 k
b0 s
b0 j
b0 r
b1100011 l
b1100011 t
b1100011 w
b11111111111111111111111111111000 A
b11111111111111111111111111111000 T
b11111111111111111111111111111000 i
b111000 :
b111000 W
b111000 a
b1001000101000100001100011 &
b1001000101000100001100011 /
b1001000101000100001100011 <
b1001000101000100001100011 !"
b1101 ~
b111000 D
b111000 I
b111000 _
b111000 g
b1000100 C
b1000100 L
b1000100 `
b110100 %
b110100 .
b110100 ;
b110100 H
b110100 J
b110100 X
1"
#26000
0"
#26500
b10000 A
b10000 T
b10000 i
b10000 ?
b10000 e
b10000 f
b100 {
b10000 )
b10000 5
b10000 E
b10000 P
b10000 b
b1000 7
b1000 M
b1000 ^
b0 6
b0 F
b0 O
b0 p
b0 v
b101 >
b101 K
b101 [
b101 ]
b1000 $
b1000 ,
b1000 8
b1000 U
b1000 \
b1000 }
b10 q
b10 u
b10 x
01
b0 0
b0 =
b0 Z
b0 n
b0 z
1+
b1010010100000101 Y
b101 S
b101 R
b110011 l
b110011 t
b110011 w
b111100 :
b111100 W
b111100 a
b10100101000001010110011 &
b10100101000001010110011 /
b10100101000001010110011 <
b10100101000001010110011 !"
b1110 ~
b111100 D
b111100 I
b111100 _
b111100 g
b111101 C
b111101 L
b111101 `
b111000 %
b111000 .
b111000 ;
b111000 H
b111000 J
b111000 X
1"
#27000
0"
#27500
b100 A
b100 T
b100 i
b100 ?
b100 e
b100 f
b1 {
b1 >
b1 K
b1 [
b1 ]
14
b100 )
b100 5
b100 E
b100 P
b100 b
b1 7
b1 M
b1 ^
b10011000000110 Y
b110 S
b1 R
b110 Q
b10011 l
b10011 t
b10011 w
b1000000 :
b1000000 W
b1000000 a
b11 9
b11 N
b11 V
bx $
bx ,
bx 8
bx U
bx \
bx }
b100110000001100010011 &
b100110000001100010011 /
b100110000001100010011 <
b100110000001100010011 !"
b1111 ~
b1000000 D
b1000000 I
b1000000 _
b1000000 g
b111101 C
b111101 L
b111101 `
b111100 %
b111100 .
b111100 ;
b111100 H
b111100 J
b111100 X
1"
#28000
0"
