dataPath/dataPath_tb.vcd
$date
	Tue Nov 12 15:12:40 2024
$end
$version
	Icarus Verilog
$end
$timescale
	1ps
$end
$scope module dataPath_tb $end
$var wire 1 ! zero $end
$var wire 32 " instruccion [31:0] $end
$var parameter 32 # DURATION $end
$var reg 3 $ ALUControl [2:0] $end
$var reg 1 % ALUsrc $end
$var reg 1 & MemWrite $end
$var reg 1 ' PCSrc $end
$var reg 1 ( RegWrite $end
$var reg 2 ) ResultSrc [1:0] $end
$var reg 1 * clk $end
$var reg 2 + immSrc [1:0] $end
$scope module uut $end
$var wire 3 , ALUControl [2:0] $end
$var wire 1 % ALUsrc $end
$var wire 1 & MemWrite $end
$var wire 1 ' PCSrc $end
$var wire 1 ( RegWrite $end
$var wire 2 - ResultSrc [1:0] $end
$var wire 1 * clk $end
$var wire 2 . immSrc [1:0] $end
$var wire 1 ! zero $end
$var wire 32 / srcB [31:0] $end
$var wire 32 0 rd2 [31:0] $end
$var wire 32 1 rd1 [31:0] $end
$var wire 32 2 pcNext [31:0] $end
$var wire 32 3 pc [31:0] $end
$var wire 32 4 instruccion [31:0] $end
$var wire 32 5 immExt [31:0] $end
$var wire 32 6 Result_mux1 [31:0] $end
$var wire 32 7 Result [31:0] $end
$var wire 32 8 ReadData [31:0] $end
$var wire 32 9 PCTarget [31:0] $end
$var wire 32 : PCPlus4 [31:0] $end
$var wire 32 ; ALUResult [31:0] $end
$scope module adder_contador_programa $end
$var wire 32 < op2 [31:0] $end
$var wire 32 = op1 [31:0] $end
$var reg 32 > res [31:0] $end
$upscope $end
$scope module adder_ext $end
$var wire 32 ? op2 [31:0] $end
$var wire 32 @ op1 [31:0] $end
$var reg 32 A res [31:0] $end
$upscope $end
$scope module alu $end
$var wire 3 B ALUControl [2:0] $end
$var wire 32 C srcB [31:0] $end
$var wire 32 D srcA [31:0] $end
$var reg 32 E result [31:0] $end
$var reg 1 ! zero $end
$upscope $end
$scope module banco_registros $end
$var wire 5 F a1 [4:0] $end
$var wire 5 G a2 [4:0] $end
$var wire 5 H a3 [4:0] $end
$var wire 1 * clk $end
$var wire 32 I rd1 [31:0] $end
$var wire 32 J rd2 [31:0] $end
$var wire 1 ( we $end
$var wire 32 K wd3 [31:0] $end
$upscope $end
$scope module contador_programa $end
$var wire 1 * clk $end
$var wire 32 L pcNext [31:0] $end
$var reg 32 M pc [31:0] $end
$upscope $end
$scope module ext $end
$var wire 25 N inm [24:0] $end
$var wire 2 O src [1:0] $end
$var reg 32 P inmExt [31:0] $end
$upscope $end
$scope module memoria_datos $end
$var wire 5 Q addresDM [4:0] $end
$var wire 1 * clk $end
$var wire 32 R rd [31:0] $end
$var wire 32 S wd [31:0] $end
$var wire 1 & we $end
$var integer 32 T i [31:0] $end
$upscope $end
$scope module memoria_instruccion $end
$var wire 5 U addresIM [4:0] $end
$var wire 32 V inst [31:0] $end
$upscope $end
$scope module mux_alu $end
$var wire 32 W e1 [31:0] $end
$var wire 32 X e2 [31:0] $end
$var wire 1 % sel $end
$var reg 32 Y salMux [31:0] $end
$upscope $end
$scope module mux_contador_programa $end
$var wire 32 Z e1 [31:0] $end
$var wire 32 [ e2 [31:0] $end
$var wire 1 ' sel $end
$var reg 32 \ salMux [31:0] $end
$upscope $end
$scope module mux_memoria_datos_1 $end
$var wire 32 ] e1 [31:0] $end
$var wire 32 ^ e2 [31:0] $end
$var wire 1 _ sel $end
$var reg 32 ` salMux [31:0] $end
$upscope $end
$scope module mux_memoria_datos_2 $end
$var wire 32 a e1 [31:0] $end
$var wire 32 b e2 [31:0] $end
$var wire 1 c sel $end
$var reg 32 d salMux [31:0] $end
$upscope $end
$upscope $end
$upscope $end
$enddefinitions $end
$comment Show the parameter values. $end
$dumpall
b1010 #
$end
#0
$dumpvars
b0 d
0c
b100 b
b0 a
b0 `
0_
b0 ^
b0 ]
b100 \
b11 [
b100 Z
b0 Y
b11 X
b0 W
b1100000000010000010011 V
b0 U
b100000 T
b0 S
b0 R
b0 Q
b11 P
b0 O
b110000000001000 N
b0 M
b100 L
b0 K
b0 J
b0 I
b1000 H
b11 G
b0 F
b0 E
b0 D
b0 C
b0 B
b11 A
b11 @
b0 ?
b100 >
b0 =
b100 <
b0 ;
b100 :
b11 9
b0 8
b0 7
b0 6
b11 5
b1100000000010000010011 4
b0 3
b100 2
b0 1
b0 0
b0 /
b0 .
b0 -
b0 ,
b0 +
0*
b0 )
0(
0'
0&
0%
b0 $
b1100000000010000010011 "
1!
$end
#500
b1 5
b1 @
b1 P
b1 X
b10000000001001 N
b1001 H
b1 G
b1000 2
b1000 L
b1000 \
b100000000010010010011 "
b100000000010010010011 4
b100000000010010010011 V
b1 U
b1000 :
b1000 >
b1000 Z
b1000 b
b101 9
b101 A
b101 [
b100 3
b100 =
b100 ?
b100 M
1*
#1000
b11101 Q
b1101 9
b1101 A
b1101 [
1_
0!
b11111111111111111111111111110111 ;
b11111111111111111111111111110111 E
b11111111111111111111111111110111 ]
b1001 /
b1001 C
b1001 Y
b1001 5
b1001 @
b1001 P
b1001 X
b1101 2
b1101 L
b1101 \
0*
b1 )
b1 -
1&
b1 $
b1 ,
b1 B
1%
b1 +
b1 .
b1 O
1(
1'
#1500
b11110 Q
b11111111111111111111111111111011 ;
b11111111111111111111111111111011 E
b11111111111111111111111111111011 ]
b101 /
b101 C
b101 Y
b101 5
b101 @
b101 P
b101 X
b10010100011000101 N
b101 H
b1001 G
b1000 F
b10010 2
b10010 L
b10010 \
b100101000110001010110011 "
b100101000110001010110011 4
b100101000110001010110011 V
b11 U
b10001 :
b10001 >
b10001 Z
b10001 b
b10010 9
b10010 A
b10010 [
b1101 3
b1101 =
b1101 ?
b1101 M
1*
#2000
b100000010001 2
b100000010001 L
b100000010001 \
b0 Q
b100000010001 9
b100000010001 A
b100000010001 [
b100000000100 /
b100000000100 C
b100000000100 Y
1!
b0 ;
b0 E
b0 ]
b100000000100 5
b100000000100 @
b100000000100 P
b100000000100 X
0*
b10 $
b10 ,
b10 B
b10 +
b10 .
b10 O
#2500
b110 /
b110 C
b110 Y
b110 5
b110 @
b110 P
b110 X
b10010100011100110 N
b110 H
b100000010111 2
b100000010111 L
b100000010111 \
b100101000111001100110011 "
b100101000111001100110011 4
b100101000111001100110011 V
b100 U
b100000010101 :
b100000010101 >
b100000010101 Z
b100000010101 b
b100000010111 9
b100000010111 A
b100000010111 [
b100000010001 3
b100000010001 =
b100000010001 ?
b100000010001 M
1*
#3000
0*
#3500
b100000000110 /
b100000000110 C
b100000000110 Y
b100000000110 5
b100000000110 @
b100000000110 P
b100000000110 X
b10010100000000111 N
b111 H
b1000000011101 2
b1000000011101 L
b1000000011101 \
b100101000000001110110011 "
b100101000000001110110011 4
b100101000000001110110011 V
b101 U
b100000011011 :
b100000011011 >
b100000011011 Z
b100000011011 b
b1000000011101 9
b1000000011101 A
b1000000011101 [
b100000010111 3
b100000010111 =
b100000010111 ?
b100000010111 M
1*
#4000
0*
#4500
b110000011100 /
b110000011100 C
b110000011100 Y
b110000011100 5
b110000011100 @
b110000011100 P
b110000011100 X
b100000010000100100011101 N
b11101 H
b1000 G
b1001 F
b1110000111001 2
b1110000111001 L
b1110000111001 \
b1000000100001001000111010110011 "
b1000000100001001000111010110011 4
b1000000100001001000111010110011 V
b111 U
b1000000100001 :
b1000000100001 >
b1000000100001 Z
b1000000100001 b
b1110000111001 9
b1110000111001 A
b1110000111001 [
b1000000011101 3
b1000000011101 =
b1000000011101 ?
b1000000011101 M
1*
#5000
0*
#5500
b100000000100 /
b100000000100 C
b100000000100 Y
b100000000100 5
b100000000100 @
b100000000100 P
b100000000100 X
b1010010100000101 N
b101 H
b101 G
b101 F
b10010000111101 2
b10010000111101 L
b10010000111101 \
b10100101000001010110011 "
b10100101000001010110011 4
b10100101000001010110011 V
b1110 U
b1110000111101 :
b1110000111101 >
b1110000111101 Z
b1110000111101 b
b10010000111101 9
b10010000111101 A
b10010000111101 [
b1110000111001 3
b1110000111001 =
b1110000111001 ?
b1110000111001 M
1*
#6000
0*
#6500
b110 /
b110 C
b110 Y
b110 5
b110 @
b110 P
b110 X
b10011000000110 N
b110 H
b1 G
b110 F
b10010001000011 2
b10010001000011 L
b10010001000011 \
b100110000001100010011 "
b100110000001100010011 4
b100110000001100010011 V
b1111 U
b10010001000001 :
b10010001000001 >
b10010001000001 Z
b10010001000001 b
b10010001000011 9
b10010001000011 A
b10010001000011 [
b10010000111101 3
b10010000111101 =
b10010000111101 ?
b10010000111101 M
1*
#7000
0*
#7500
b11111111111111111111011111100000 /
b11111111111111111111011111100000 C
b11111111111111111111011111100000 Y
b11111111111111111111011111100000 5
b11111111111111111111011111100000 @
b11111111111111111111011111100000 P
b11111111111111111111011111100000 X
b1111111101011111111100000 N
b0 H
b10101 G
b11111 F
b1110000100011 2
b1110000100011 L
b1110000100011 \
b11111111010111111111000001101111 "
b11111111010111111111000001101111 4
b11111111010111111111000001101111 V
b10000 U
b10010001000111 :
b10010001000111 >
b10010001000111 Z
b10010001000111 b
b1110000100011 9
b1110000100011 A
b1110000100011 [
b10010001000011 3
b10010001000011 =
b10010001000011 ?
b10010001000011 M
1*
#8000
0*
#8500
b11110 /
b11110 C
b11110 Y
b11110 5
b11110 @
b11110 P
b11110 X
b10010100001011110 N
b11110 H
b1001 G
b1000 F
b1110001000001 2
b1110001000001 L
b1110001000001 \
b100101000010111100110011 "
b100101000010111100110011 4
b100101000010111100110011 V
b1000 U
b1110000100111 :
b1110000100111 >
b1110000100111 Z
b1110000100111 b
b1110001000001 9
b1110001000001 A
b1110001000001 [
b1110000100011 3
b1110000100011 =
b1110000100011 ?
b1110000100011 M
1*
#9000
0*
#9500
b11111111111111111111011111100000 /
b11111111111111111111011111100000 C
b11111111111111111111011111100000 Y
b11111111111111111111011111100000 5
b11111111111111111111011111100000 @
b11111111111111111111011111100000 P
b11111111111111111111011111100000 X
b1111111101011111111100000 N
b0 H
b10101 G
b11111 F
b1010000100001 2
b1010000100001 L
b1010000100001 \
b11111111010111111111000001101111 "
b11111111010111111111000001101111 4
b11111111010111111111000001101111 V
b10000 U
b1110001000101 :
b1110001000101 >
b1110001000101 Z
b1110001000101 b
b1010000100001 9
b1010000100001 A
b1010000100001 [
b1110001000001 3
b1110001000001 =
b1110001000001 ?
b1110001000001 M
1*
#10000
0*
#10500
b11110 /
b11110 C
b11110 Y
b11110 5
b11110 @
b11110 P
b11110 X
b10010100001011110 N
b11110 H
b1001 G
b1000 F
b1010000111111 2
b1010000111111 L
b1010000111111 \
b100101000010111100110011 "
b100101000010111100110011 4
b100101000010111100110011 V
b1000 U
b1010000100101 :
b1010000100101 >
b1010000100101 Z
b1010000100101 b
b1010000111111 9
b1010000111111 A
b1010000111111 [
b1010000100001 3
b1010000100001 =
b1010000100001 ?
b1010000100001 M
1*
#11000
0*
#11500
b110 /
b110 C
b110 Y
b110 5
b110 @
b110 P
b110 X
b10011000000110 N
b110 H
b1 G
b110 F
b1010001000101 2
b1010001000101 L
b1010001000101 \
b100110000001100010011 "
b100110000001100010011 4
b100110000001100010011 V
b1111 U
b1010001000011 :
b1010001000011 >
b1010001000011 Z
b1010001000011 b
b1010001000101 9
b1010001000101 A
b1010001000101 [
b1010000111111 3
b1010000111111 =
b1010000111111 ?
b1010000111111 M
1*
#12000
0*
#12500
b100000001000 /
b100000001000 C
b100000001000 Y
b100000001000 5
b100000001000 @
b100000001000 P
b100000001000 X
b1001 N
b1001 H
b0 G
b0 F
b1110001001101 2
b1110001001101 L
b1110001001101 \
b10010110011 "
b10010110011 4
b10010110011 V
b10001 U
b1010001001001 :
b1010001001001 >
b1010001001001 Z
b1010001001001 b
b1110001001101 9
b1110001001101 A
b1110001001101 [
b1010001000101 3
b1010001000101 =
b1010001000101 ?
b1010001000101 M
1*
