Procesador RV32I/rv32i_tb.vcd
$date
	Mon Nov 18 17:52:30 2024
$end
$version
	Icarus Verilog
$end
$timescale
	1ps
$end
$scope module rv32i_tb $end
$var parameter 32 ! DURATION $end
$var reg 1 " clk $end
$scope module UUT $end
$var wire 1 " clk $end
$var wire 1 # zero $end
$var wire 1 $ regWrite $end
$var wire 1 % pcSrc $end
$var wire 32 & instruccion [31:0] $end
$var wire 2 ' immSrc [1:0] $end
$var wire 1 ( branch $end
$var wire 2 ) ResultSrc [1:0] $end
$var wire 1 * MemWrite $end
$var wire 1 + ALUsrc $end
$var wire 3 , ALUControl [2:0] $end
$scope module u_datapath $end
$var wire 1 " clk $end
$var wire 1 # zero $end
$var wire 32 - srcB [31:0] $end
$var wire 32 . rd2 [31:0] $end
$var wire 32 / rd1 [31:0] $end
$var wire 32 0 pcNext [31:0] $end
$var wire 32 1 pc [31:0] $end
$var wire 32 2 instruccion [31:0] $end
$var wire 2 3 immSrc [1:0] $end
$var wire 32 4 immExt [31:0] $end
$var wire 32 5 Result_mux1 [31:0] $end
$var wire 2 6 ResultSrc [1:0] $end
$var wire 32 7 Result [31:0] $end
$var wire 1 $ RegWrite $end
$var wire 32 8 ReadData [31:0] $end
$var wire 32 9 PCTarget [31:0] $end
$var wire 1 % PCSrc $end
$var wire 32 : PCPlus4 [31:0] $end
$var wire 1 * MemWrite $end
$var wire 1 + ALUsrc $end
$var wire 32 ; ALUResult [31:0] $end
$var wire 3 < ALUControl [2:0] $end
$scope module adder_contador_programa $end
$var wire 32 = op2 [31:0] $end
$var wire 32 > op1 [31:0] $end
$var reg 32 ? res [31:0] $end
$upscope $end
$scope module adder_ext $end
$var wire 32 @ op2 [31:0] $end
$var wire 32 A op1 [31:0] $end
$var reg 32 B res [31:0] $end
$upscope $end
$scope module alu $end
$var wire 32 C srcB [31:0] $end
$var wire 32 D srcA [31:0] $end
$var wire 3 E ALUControl [2:0] $end
$var reg 32 F result [31:0] $end
$var reg 1 # zero $end
$upscope $end
$scope module banco_registros $end
$var wire 5 G a1 [4:0] $end
$var wire 5 H a2 [4:0] $end
$var wire 5 I a3 [4:0] $end
$var wire 1 " clk $end
$var wire 32 J rd1 [31:0] $end
$var wire 32 K rd2 [31:0] $end
$var wire 1 $ we $end
$var wire 32 L wd3 [31:0] $end
$var integer 32 M i [31:0] $end
$upscope $end
$scope module contador_programa $end
$var wire 1 " clk $end
$var wire 32 N pcNext [31:0] $end
$var reg 32 O pc [31:0] $end
$upscope $end
$scope module ext $end
$var wire 25 P inm [24:0] $end
$var wire 2 Q src [1:0] $end
$var reg 32 R inmExt [31:0] $end
$upscope $end
$scope module memoria_datos $end
$var wire 5 S addresDM [4:0] $end
$var wire 1 " clk $end
$var wire 32 T rd [31:0] $end
$var wire 32 U wd [31:0] $end
$var wire 1 * we $end
$var integer 32 V i [31:0] $end
$upscope $end
$scope module memoria_instruccion $end
$var wire 5 W addresIM [4:0] $end
$var wire 32 X inst [31:0] $end
$upscope $end
$scope module mux_alu $end
$var wire 32 Y e1 [31:0] $end
$var wire 32 Z e2 [31:0] $end
$var wire 1 + sel $end
$var reg 32 [ salMux [31:0] $end
$upscope $end
$scope module mux_contador_programa $end
$var wire 32 \ e1 [31:0] $end
$var wire 32 ] e2 [31:0] $end
$var wire 1 % sel $end
$var reg 32 ^ salMux [31:0] $end
$upscope $end
$scope module mux_memoria_datos_1 $end
$var wire 32 _ e1 [31:0] $end
$var wire 32 ` e2 [31:0] $end
$var wire 1 a sel $end
$var reg 32 b salMux [31:0] $end
$upscope $end
$scope module mux_memoria_datos_2 $end
$var wire 32 c e1 [31:0] $end
$var wire 32 d e2 [31:0] $end
$var wire 1 e sel $end
$var reg 32 f salMux [31:0] $end
$upscope $end
$upscope $end
$scope module unidad_control $end
$var wire 1 % PCSrc $end
$var wire 3 g f3 [2:0] $end
$var wire 7 h f7 [6:0] $end
$var wire 7 i op [6:0] $end
$var wire 1 # zero $end
$var wire 1 $ regWrite $end
$var wire 1 * memWrite $end
$var wire 1 j jump $end
$var wire 2 k immSrc [1:0] $end
$var wire 1 ( branch $end
$var wire 1 + aluSrc $end
$var wire 2 l ResultSrc [1:0] $end
$var wire 3 m ALUcontrol [2:0] $end
$var wire 2 n ALUOp_wire [1:0] $end
$scope module alu_decoder $end
$var wire 3 o f3 [2:0] $end
$var wire 7 p f7 [6:0] $end
$var wire 7 q op [6:0] $end
$var wire 2 r aluOp [1:0] $end
$var reg 3 s aluControl [2:0] $end
$upscope $end
$scope module main_decoder $end
$var wire 7 t op [6:0] $end
$var reg 2 u ALUOp [1:0] $end
$var reg 1 + ALUSrc $end
$var reg 1 j Jump $end
$var reg 2 v ResultSrc [1:0] $end
$var reg 1 ( branch $end
$var reg 2 w immSrc [1:0] $end
$var reg 1 * memWrite $end
$var reg 1 $ regWrite $end
$upscope $end
$upscope $end
$upscope $end
$upscope $end
$enddefinitions $end
$comment Show the parameter values. $end
$dumpall
b101110111000 !
$end
#0
$dumpvars
b0 w
b0 v
b10 u
b10011 t
b0 s
b10 r
b10011 q
b0 p
b0 o
b10 n
b0 m
b0 l
b0 k
0j
b10011 i
b0 h
b0 g
b11 f
0e
b100 d
b11 c
b11 b
0a
b0 `
b11 _
b100 ^
b11 ]
b100 \
b11 [
b11 Z
b0 Y
b1100000000010000010011 X
b0 W
b100000 V
b0 U
b0 T
b0 S
b11 R
b0 Q
b110000000001000 P
b0 O
b100 N
b100000 M
b11 L
b0 K
b0 J
b1000 I
b11 H
b0 G
b11 F
b0 E
b0 D
b11 C
b11 B
b11 A
b0 @
b100 ?
b0 >
b100 =
b0 <
b11 ;
b100 :
b11 9
b0 8
b11 7
b0 6
b11 5
b11 4
b0 3
b1100000000010000010011 2
b0 1
b100 0
b0 /
b0 .
b11 -
b0 ,
1+
0*
b0 )
0(
b0 '
b1100000000010000010011 &
0%
1$
0#
0"
$end
#500
b1 7
b1 L
b1 f
b1 5
b1 b
b1 c
b1 ;
b1 F
b1 _
b1 -
b1 C
b1 [
b1 4
b1 A
b1 R
b1 Z
b10000000001001 P
b1001 I
b1 H
b1000 0
b1000 N
b1000 ^
b100000000010010010011 &
b100000000010010010011 2
b100000000010010010011 X
b1 W
b1000 :
b1000 ?
b1000 \
b1000 d
b101 9
b101 B
b101 ]
b100 1
b100 >
b100 @
b100 O
1"
#1000
0"
#1500
b10000 7
b10000 L
b10000 f
b10000 5
b10000 b
b10000 c
b100 S
b10000 ;
b10000 F
b10000 _
b10000 -
b10000 C
b10000 [
b10000 4
b10000 A
b10000 R
b10000 Z
b100000000000010010 P
b10010 I
b10000 H
b1100 0
b1100 N
b1100 ^
b1000000000000100100010011 &
b1000000000000100100010011 2
b1000000000000100100010011 X
b10 W
b1100 :
b1100 ?
b1100 \
b1100 d
b11000 9
b11000 B
b11000 ]
b1000 1
b1000 >
b1000 @
b1000 O
1"
#2000
0"
#2500
b0 S
b11 7
b11 L
b11 f
b11 5
b11 b
b11 c
b1001 4
b1001 A
b1001 R
b1001 Z
b1 -
b1 C
b1 [
b11 ;
b11 F
b11 _
b11 ,
b11 <
b11 E
b11 m
b11 s
0+
b10010100011000101 P
b101 I
b1 .
b1 K
b1 U
b1 Y
b1001 H
b11 /
b11 D
b11 J
b1000 G
b110 g
b110 o
b110011 i
b110011 q
b110011 t
b10000 0
b10000 N
b10000 ^
b100101000110001010110011 &
b100101000110001010110011 2
b100101000110001010110011 X
b11 W
b10000 :
b10000 ?
b10000 \
b10000 d
b10101 9
b10101 B
b10101 ]
b1100 1
b1100 >
b1100 @
b1100 O
1"
#3000
0"
#3500
b1 7
b1 L
b1 f
b1 5
b1 b
b1 c
b1 ;
b1 F
b1 _
b10 ,
b10 <
b10 E
b10 m
b10 s
b10010100011100110 P
b110 I
b111 g
b111 o
b10100 0
b10100 N
b10100 ^
b100101000111001100110011 &
b100101000111001100110011 2
b100101000111001100110011 X
b100 W
b10100 :
b10100 ?
b10100 \
b10100 d
b11001 9
b11001 B
b11001 ]
b10000 1
b10000 >
b10000 @
b10000 O
1"
#4000
0"
#4500
b100 7
b100 L
b100 f
b100 5
b100 b
b100 c
b1 S
b100 ;
b100 F
b100 _
b0 ,
b0 <
b0 E
b0 m
b0 s
b10010100000000111 P
b111 I
b0 g
b0 o
b11000 0
b11000 N
b11000 ^
b100101000000001110110011 &
b100101000000001110110011 2
b100101000000001110110011 X
b101 W
b11000 :
b11000 ?
b11000 \
b11000 d
b11101 9
b11101 B
b11101 ]
b10100 1
b10100 >
b10100 @
b10100 O
1"
#5000
0"
#5500
b10 7
b10 L
b10 f
b10 5
b10 b
b10 c
b0 S
b10 ;
b10 F
b10 _
b10000001001 4
b10000001001 A
b10000001001 R
b10000001001 Z
b1 ,
b1 <
b1 E
b1 m
b1 s
b100000010010100000011100 P
b11100 I
b100000 h
b100000 p
b11100 0
b11100 N
b11100 ^
b1000000100101000000111000110011 &
b1000000100101000000111000110011 2
b1000000100101000000111000110011 X
b110 W
b11100 :
b11100 ?
b11100 \
b11100 d
b10000100001 9
b10000100001 B
b10000100001 ]
b11000 1
b11000 >
b11000 @
b11000 O
1"
#6000
0"
#6500
b11111 S
b11111111111111111111111111111110 7
b11111111111111111111111111111110 L
b11111111111111111111111111111110 f
b11111111111111111111111111111110 5
b11111111111111111111111111111110 b
b11111111111111111111111111111110 c
b10000001000 4
b10000001000 A
b10000001000 R
b10000001000 Z
b11 -
b11 C
b11 [
0#
b11111111111111111111111111111110 ;
b11111111111111111111111111111110 F
b11111111111111111111111111111110 _
b100000010000100100011101 P
b11101 I
b11 .
b11 K
b11 U
b11 Y
b1000 H
b1 /
b1 D
b1 J
b1001 G
b100000 0
b100000 N
b100000 ^
b1000000100001001000111010110011 &
b1000000100001001000111010110011 2
b1000000100001001000111010110011 X
b111 W
b100000 :
b100000 ?
b100000 \
b100000 d
b10000100100 9
b10000100100 B
b10000100100 ]
b11100 1
b11100 >
b11100 @
b11100 O
1"
#7000
0"
#7500
b0 7
b0 L
b0 f
b0 5
b0 b
b0 c
b0 S
b1001 4
b1001 A
b1001 R
b1001 Z
b1 -
b1 C
b1 [
1#
b0 ;
b0 F
b0 _
b101 ,
b101 <
b101 E
b101 m
b101 s
b10010100001011110 P
b11110 I
b1 .
b1 K
b1 U
b1 Y
b1001 H
b11 /
b11 D
b11 J
b1000 G
b0 h
b0 p
b10 g
b10 o
b100100 0
b100100 N
b100100 ^
b100101000010111100110011 &
b100101000010111100110011 2
b100101000010111100110011 X
b1000 W
b100100 :
b100100 ?
b100100 \
b100100 d
b101001 9
b101001 B
b101001 ]
b100000 1
b100000 >
b100000 @
b100000 O
1"
#8000
0"
#8500
b1 7
b1 L
b1 f
b1 5
b1 b
b1 c
0#
b1 ;
b1 F
b1 _
b1000 4
b1000 A
b1000 R
b1000 Z
b11 -
b11 C
b11 [
b10000100101011111 P
b11111 I
b11 .
b11 K
b11 U
b11 Y
b1000 H
b1 /
b1 D
b1 J
b1001 G
b101000 0
b101000 N
b101000 ^
b100001001010111110110011 &
b100001001010111110110011 2
b100001001010111110110011 X
b1001 W
b101000 :
b101000 ?
b101000 \
b101000 d
b101100 9
b101100 B
b101100 ]
b100100 1
b100100 >
b100100 @
b100100 O
1"
#9000
0"
#9500
b0 7
b0 L
b0 f
b0 5
b0 b
b0 c
1#
b0 ;
b0 F
b0 _
b11101 4
b11101 A
b11101 R
b11101 Z
b11111111111111111111111111111110 -
b11111111111111111111111111111110 C
b11111111111111111111111111111110 [
b111010100101011111 P
b11111111111111111111111111111110 .
b11111111111111111111111111111110 K
b11111111111111111111111111111110 U
b11111111111111111111111111111110 Y
b11101 H
b101100 0
b101100 N
b101100 ^
b1110101001010111110110011 &
b1110101001010111110110011 2
b1110101001010111110110011 X
b1010 W
b101100 :
b101100 ?
b101100 \
b101100 d
b1000101 9
b1000101 B
b1000101 ]
b101000 1
b101000 >
b101000 @
b101000 O
1"
#10000
0"
#10500
b1 7
b1 L
b1 f
b1 5
b1 b
b1 c
b0 S
b1 4
b1 A
b1 R
b1 Z
b1 -
b1 C
b1 [
0#
b1 ;
b1 F
b1 _
b0 ,
b0 <
b0 E
b0 m
b0 s
1+
b10000000000101 P
b101 I
b0 .
b0 K
b0 U
b0 Y
b1 H
b0 /
b0 D
b0 J
b0 G
b0 g
b0 o
b10011 i
b10011 q
b10011 t
b110000 0
b110000 N
b110000 ^
b100000000001010010011 &
b100000000001010010011 2
b100000000001010010011 X
b1011 W
b110000 :
b110000 ?
b110000 \
b110000 d
b101101 9
b101101 B
b101101 ]
b101100 1
b101100 >
b101100 @
b101100 O
1"
#11000
0"
#11500
b0 7
b0 L
b0 f
b0 5
b0 b
b0 c
1#
b0 ;
b0 F
b0 _
b0 -
b0 C
b0 [
b0 4
b0 A
b0 R
b0 Z
b110 P
b110 I
b0 H
b110100 0
b110100 N
b110100 ^
b1100010011 &
b1100010011 2
b1100010011 X
b1100 W
b110100 :
b110100 ?
b110100 \
b110100 d
b110000 9
b110000 B
b110000 ]
b110000 1
b110000 >
b110000 @
b110000 O
1"
#12000
0"
#12500
b11100 S
b11111111111111111111111111110001 7
b11111111111111111111111111110001 L
b11111111111111111111111111110001 f
b11111111111111111111111111110001 5
b11111111111111111111111111110001 b
b11111111111111111111111111110001 c
b1 ,
b1 <
b1 E
b1 m
b1 s
b10000 4
b10000 A
b10000 R
b10000 Z
b10000 -
b10000 C
b10000 [
0#
b11111111111111111111111111110001 ;
b11111111111111111111111111110001 F
b11111111111111111111111111110001 _
b1 n
b1 r
b1 u
1(
0+
b10 '
b10 3
b10 Q
b10 k
b10 w
0$
b100100010100010000 P
b10000 I
b10000 .
b10000 K
b10000 U
b10000 Y
b10010 H
b1 /
b1 D
b1 J
b101 G
b1100011 i
b1100011 q
b1100011 t
b111000 0
b111000 N
b111000 ^
b1001000101000100001100011 &
b1001000101000100001100011 2
b1001000101000100001100011 X
b1101 W
b111000 :
b111000 ?
b111000 \
b111000 d
b1000100 9
b1000100 B
b1000100 ]
b110100 1
b110100 >
b110100 @
b110100 O
1"
#13000
0"
#13500
b10 7
b10 L
b10 f
b10 5
b10 b
b10 c
b0 S
b10 ;
b10 F
b10 _
b0 ,
b0 <
b0 E
b0 m
b0 s
b101 4
b101 A
b101 R
b101 Z
b1 -
b1 C
b1 [
b10 n
b10 r
b10 u
0(
b0 '
b0 3
b0 Q
b0 k
b0 w
1$
b1010010100000101 P
b101 I
b1 .
b1 K
b1 U
b1 Y
b101 H
b110011 i
b110011 q
b110011 t
b111100 0
b111100 N
b111100 ^
b10100101000001010110011 &
b10100101000001010110011 2
b10100101000001010110011 X
b1110 W
b111100 :
b111100 ?
b111100 \
b111100 d
b111101 9
b111101 B
b111101 ]
b111000 1
b111000 >
b111000 @
b111000 O
1"
#14000
0"
#14500
b0 S
b1 7
b1 L
b1 f
b1 5
b1 b
b1 c
b1 4
b1 A
b1 R
b1 Z
b1 -
b1 C
b1 [
b1 ;
b1 F
b1 _
1+
b10011000000110 P
b110 I
b0 .
b0 K
b0 U
b0 Y
b1 H
b0 /
b0 D
b0 J
b110 G
b10011 i
b10011 q
b10011 t
b1000000 0
b1000000 N
b1000000 ^
b100110000001100010011 &
b100110000001100010011 2
b100110000001100010011 X
b1111 W
b1000000 :
b1000000 ?
b1000000 \
b1000000 d
b111101 9
b111101 B
b111101 ]
b111100 1
b111100 >
b111100 @
b111100 O
1"
#15000
0"
#15500
b0 5
b0 b
b0 c
b1000100 7
b1000100 L
b1000100 f
1#
b0 ;
b0 F
b0 _
1%
1e
b0 -
b0 C
b0 [
b11111111111111111111111111110100 4
b11111111111111111111111111110100 A
b11111111111111111111111111110100 R
b11111111111111111111111111110100 Z
b111 ,
b111 <
b111 E
b111 m
b111 s
1j
bx n
bx r
bx u
b10 )
b10 6
b10 l
b10 v
0+
b11 '
b11 3
b11 Q
b11 k
b11 w
b1111111101011111111100000 P
b0 I
b10101 H
b11111 G
b1111111 h
b1111111 p
b111 g
b111 o
b1101111 i
b1101111 q
b1101111 t
b110100 0
b110100 N
b110100 ^
b11111111010111111111000001101111 &
b11111111010111111111000001101111 2
b11111111010111111111000001101111 X
b10000 W
b1000100 :
b1000100 ?
b1000100 \
b1000100 d
b110100 9
b110100 B
b110100 ]
b1000000 1
b1000000 >
b1000000 @
b1000000 O
1"
#16000
0"
#16500
b11100 S
b11111111111111111111111111110010 5
b11111111111111111111111111110010 b
b11111111111111111111111111110010 c
0%
0e
b10000 4
b10000 A
b10000 R
b10000 Z
b10000 -
b10000 C
b10000 [
0#
b11111111111111111111111111110010 ;
b11111111111111111111111111110010 F
b11111111111111111111111111110010 _
b1 ,
b1 <
b1 E
b1 m
b1 s
0j
b1 n
b1 r
b1 u
1(
b0 )
b0 6
b0 l
b0 v
b10 '
b10 3
b10 Q
b10 k
b10 w
0$
b100100010100010000 P
b10000 I
b10000 .
b10000 K
b10000 U
b10000 Y
b10010 H
b10 /
b10 D
b10 J
b101 G
b0 h
b0 p
b0 g
b0 o
b1100011 i
b1100011 q
b1100011 t
b11111111111111111111111111110010 7
b11111111111111111111111111110010 L
b11111111111111111111111111110010 f
b111000 0
b111000 N
b111000 ^
b1001000101000100001100011 &
b1001000101000100001100011 2
b1001000101000100001100011 X
b1101 W
b111000 :
b111000 ?
b111000 \
b111000 d
b1000100 9
b1000100 B
b1000100 ]
b110100 1
b110100 >
b110100 @
b110100 O
1"
#17000
0"
#17500
b100 7
b100 L
b100 f
b100 5
b100 b
b100 c
b1 S
b100 ;
b100 F
b100 _
b0 ,
b0 <
b0 E
b0 m
b0 s
b101 4
b101 A
b101 R
b101 Z
b10 -
b10 C
b10 [
b10 n
b10 r
b10 u
0(
b0 '
b0 3
b0 Q
b0 k
b0 w
1$
b1010010100000101 P
b101 I
b10 .
b10 K
b10 U
b10 Y
b101 H
b110011 i
b110011 q
b110011 t
b111100 0
b111100 N
b111100 ^
b10100101000001010110011 &
b10100101000001010110011 2
b10100101000001010110011 X
b1110 W
b111100 :
b111100 ?
b111100 \
b111100 d
b111101 9
b111101 B
b111101 ]
b111000 1
b111000 >
b111000 @
b111000 O
1"
#18000
0"
#18500
b10 7
b10 L
b10 f
b10 5
b10 b
b10 c
b0 S
b1 4
b1 A
b1 R
b1 Z
b1 -
b1 C
b1 [
b10 ;
b10 F
b10 _
1+
b10011000000110 P
b110 I
b0 .
b0 K
b0 U
b0 Y
b1 H
b1 /
b1 D
b1 J
b110 G
b10011 i
b10011 q
b10011 t
b1000000 0
b1000000 N
b1000000 ^
b100110000001100010011 &
b100110000001100010011 2
b100110000001100010011 X
b1111 W
b1000000 :
b1000000 ?
b1000000 \
b1000000 d
b111101 9
b111101 B
b111101 ]
b111100 1
b111100 >
b111100 @
b111100 O
1"
#19000
0"
#19500
b1000100 7
b1000100 L
b1000100 f
b0 5
b0 b
b0 c
1%
1e
b0 -
b0 C
b0 [
b11111111111111111111111111110100 4
b11111111111111111111111111110100 A
b11111111111111111111111111110100 R
b11111111111111111111111111110100 Z
1#
b0 ;
b0 F
b0 _
b111 ,
b111 <
b111 E
b111 m
b111 s
1j
bx n
bx r
bx u
b10 )
b10 6
b10 l
b10 v
0+
b11 '
b11 3
b11 Q
b11 k
b11 w
b1111111101011111111100000 P
b0 I
b10101 H
b0 /
b0 D
b0 J
b11111 G
b1111111 h
b1111111 p
b111 g
b111 o
b1101111 i
b1101111 q
b1101111 t
b110100 0
b110100 N
b110100 ^
b11111111010111111111000001101111 &
b11111111010111111111000001101111 2
b11111111010111111111000001101111 X
b10000 W
b1000100 :
b1000100 ?
b1000100 \
b1000100 d
b110100 9
b110100 B
b110100 ]
b1000000 1
b1000000 >
b1000000 @
b1000000 O
1"
#20000
0"
#20500
b11111111111111111111111111110100 5
b11111111111111111111111111110100 b
b11111111111111111111111111110100 c
b11101 S
0%
0e
b10000 4
b10000 A
b10000 R
b10000 Z
b10000 -
b10000 C
b10000 [
0#
b11111111111111111111111111110100 ;
b11111111111111111111111111110100 F
b11111111111111111111111111110100 _
b1 ,
b1 <
b1 E
b1 m
b1 s
0j
b1 n
b1 r
b1 u
1(
b0 )
b0 6
b0 l
b0 v
b10 '
b10 3
b10 Q
b10 k
b10 w
0$
b100100010100010000 P
b10000 I
b10000 .
b10000 K
b10000 U
b10000 Y
b10010 H
b100 /
b100 D
b100 J
b101 G
b0 h
b0 p
b0 g
b0 o
b1100011 i
b1100011 q
b1100011 t
b11111111111111111111111111110100 7
b11111111111111111111111111110100 L
b11111111111111111111111111110100 f
b111000 0
b111000 N
b111000 ^
b1001000101000100001100011 &
b1001000101000100001100011 2
b1001000101000100001100011 X
b1101 W
b111000 :
b111000 ?
b111000 \
b111000 d
b1000100 9
b1000100 B
b1000100 ]
b110100 1
b110100 >
b110100 @
b110100 O
1"
#21000
0"
#21500
b1000 7
b1000 L
b1000 f
b1000 5
b1000 b
b1000 c
b10 S
b1000 ;
b1000 F
b1000 _
b0 ,
b0 <
b0 E
b0 m
b0 s
b101 4
b101 A
b101 R
b101 Z
b100 -
b100 C
b100 [
b10 n
b10 r
b10 u
0(
b0 '
b0 3
b0 Q
b0 k
b0 w
1$
b1010010100000101 P
b101 I
b100 .
b100 K
b100 U
b100 Y
b101 H
b110011 i
b110011 q
b110011 t
b111100 0
b111100 N
b111100 ^
b10100101000001010110011 &
b10100101000001010110011 2
b10100101000001010110011 X
b1110 W
b111100 :
b111100 ?
b111100 \
b111100 d
b111101 9
b111101 B
b111101 ]
b111000 1
b111000 >
b111000 @
b111000 O
1"
#22000
0"
#22500
b11 7
b11 L
b11 f
b11 5
b11 b
b11 c
b0 S
b1 4
b1 A
b1 R
b1 Z
b1 -
b1 C
b1 [
b11 ;
b11 F
b11 _
1+
b10011000000110 P
b110 I
b0 .
b0 K
b0 U
b0 Y
b1 H
b10 /
b10 D
b10 J
b110 G
b10011 i
b10011 q
b10011 t
b1000000 0
b1000000 N
b1000000 ^
b100110000001100010011 &
b100110000001100010011 2
b100110000001100010011 X
b1111 W
b1000000 :
b1000000 ?
b1000000 \
b1000000 d
b111101 9
b111101 B
b111101 ]
b111100 1
b111100 >
b111100 @
b111100 O
1"
#23000
0"
#23500
b1000100 7
b1000100 L
b1000100 f
b0 5
b0 b
b0 c
1%
1e
b0 -
b0 C
b0 [
b11111111111111111111111111110100 4
b11111111111111111111111111110100 A
b11111111111111111111111111110100 R
b11111111111111111111111111110100 Z
1#
b0 ;
b0 F
b0 _
b111 ,
b111 <
b111 E
b111 m
b111 s
1j
bx n
bx r
bx u
b10 )
b10 6
b10 l
b10 v
0+
b11 '
b11 3
b11 Q
b11 k
b11 w
b1111111101011111111100000 P
b0 I
b10101 H
b0 /
b0 D
b0 J
b11111 G
b1111111 h
b1111111 p
b111 g
b111 o
b1101111 i
b1101111 q
b1101111 t
b110100 0
b110100 N
b110100 ^
b11111111010111111111000001101111 &
b11111111010111111111000001101111 2
b11111111010111111111000001101111 X
b10000 W
b1000100 :
b1000100 ?
b1000100 \
b1000100 d
b110100 9
b110100 B
b110100 ]
b1000000 1
b1000000 >
b1000000 @
b1000000 O
1"
#24000
0"
#24500
b11111111111111111111111111111000 5
b11111111111111111111111111111000 b
b11111111111111111111111111111000 c
b11110 S
0%
0e
b10000 4
b10000 A
b10000 R
b10000 Z
b10000 -
b10000 C
b10000 [
0#
b11111111111111111111111111111000 ;
b11111111111111111111111111111000 F
b11111111111111111111111111111000 _
b1 ,
b1 <
b1 E
b1 m
b1 s
0j
b1 n
b1 r
b1 u
1(
b0 )
b0 6
b0 l
b0 v
b10 '
b10 3
b10 Q
b10 k
b10 w
0$
b100100010100010000 P
b10000 I
b10000 .
b10000 K
b10000 U
b10000 Y
b10010 H
b1000 /
b1000 D
b1000 J
b101 G
b0 h
b0 p
b0 g
b0 o
b1100011 i
b1100011 q
b1100011 t
b11111111111111111111111111111000 7
b11111111111111111111111111111000 L
b11111111111111111111111111111000 f
b111000 0
b111000 N
b111000 ^
b1001000101000100001100011 &
b1001000101000100001100011 2
b1001000101000100001100011 X
b1101 W
b111000 :
b111000 ?
b111000 \
b111000 d
b1000100 9
b1000100 B
b1000100 ]
b110100 1
b110100 >
b110100 @
b110100 O
1"
#25000
0"
#25500
b10000 7
b10000 L
b10000 f
b10000 5
b10000 b
b10000 c
b100 S
b10000 ;
b10000 F
b10000 _
b0 ,
b0 <
b0 E
b0 m
b0 s
b101 4
b101 A
b101 R
b101 Z
b1000 -
b1000 C
b1000 [
b10 n
b10 r
b10 u
0(
b0 '
b0 3
b0 Q
b0 k
b0 w
1$
b1010010100000101 P
b101 I
b1000 .
b1000 K
b1000 U
b1000 Y
b101 H
b110011 i
b110011 q
b110011 t
b111100 0
b111100 N
b111100 ^
b10100101000001010110011 &
b10100101000001010110011 2
b10100101000001010110011 X
b1110 W
b111100 :
b111100 ?
b111100 \
b111100 d
b111101 9
b111101 B
b111101 ]
b111000 1
b111000 >
b111000 @
b111000 O
1"
#26000
0"
#26500
b100 7
b100 L
b100 f
b100 5
b100 b
b100 c
b1 S
b1 4
b1 A
b1 R
b1 Z
b1 -
b1 C
b1 [
b100 ;
b100 F
b100 _
1+
b10011000000110 P
b110 I
b0 .
b0 K
b0 U
b0 Y
b1 H
b11 /
b11 D
b11 J
b110 G
b10011 i
b10011 q
b10011 t
b1000000 0
b1000000 N
b1000000 ^
b100110000001100010011 &
b100110000001100010011 2
b100110000001100010011 X
b1111 W
b1000000 :
b1000000 ?
b1000000 \
b1000000 d
b111101 9
b111101 B
b111101 ]
b111100 1
b111100 >
b111100 @
b111100 O
1"
#27000
0"
#27500
b1000100 7
b1000100 L
b1000100 f
b0 5
b0 b
b0 c
b0 S
1%
1e
b0 -
b0 C
b0 [
b11111111111111111111111111110100 4
b11111111111111111111111111110100 A
b11111111111111111111111111110100 R
b11111111111111111111111111110100 Z
1#
b0 ;
b0 F
b0 _
b111 ,
b111 <
b111 E
b111 m
b111 s
1j
bx n
bx r
bx u
b10 )
b10 6
b10 l
b10 v
0+
b11 '
b11 3
b11 Q
b11 k
b11 w
b1111111101011111111100000 P
b0 I
b10101 H
b0 /
b0 D
b0 J
b11111 G
b1111111 h
b1111111 p
b111 g
b111 o
b1101111 i
b1101111 q
b1101111 t
b110100 0
b110100 N
b110100 ^
b11111111010111111111000001101111 &
b11111111010111111111000001101111 2
b11111111010111111111000001101111 X
b10000 W
b1000100 :
b1000100 ?
b1000100 \
b1000100 d
b110100 9
b110100 B
b110100 ]
b1000000 1
b1000000 >
b1000000 @
b1000000 O
1"
#28000
0"
#28500
b0 5
b0 b
b0 c
b0 S
1%
0e
b10000 4
b10000 A
b10000 R
b10000 Z
b10000 -
b10000 C
b10000 [
1#
b0 ;
b0 F
b0 _
b1 ,
b1 <
b1 E
b1 m
b1 s
0j
b1 n
b1 r
b1 u
1(
b0 )
b0 6
b0 l
b0 v
b10 '
b10 3
b10 Q
b10 k
b10 w
0$
b100100010100010000 P
b10000 I
b10000 .
b10000 K
b10000 U
b10000 Y
b10010 H
b10000 /
b10000 D
b10000 J
b101 G
b0 h
b0 p
b0 g
b0 o
b1100011 i
b1100011 q
b1100011 t
b0 7
b0 L
b0 f
b1000100 0
b1000100 N
b1000100 ^
b1001000101000100001100011 &
b1001000101000100001100011 2
b1001000101000100001100011 X
b1101 W
b111000 :
b111000 ?
b111000 \
b111000 d
b1000100 9
b1000100 B
b1000100 ]
b110100 1
b110100 >
b110100 @
b110100 O
1"
#29000
0"
#29500
b0 7
b0 L
b0 f
0%
b0 5
b0 b
b0 c
b0 S
b0 ,
b0 <
b0 E
b0 m
b0 s
b0 4
b0 A
b0 R
b0 Z
b0 -
b0 C
b0 [
1#
b0 ;
b0 F
b0 _
b10 n
b10 r
b10 u
0(
b0 '
b0 3
b0 Q
b0 k
b0 w
1$
b1001 P
b1001 I
b0 .
b0 K
b0 U
b0 Y
b0 H
b0 /
b0 D
b0 J
b0 G
b110011 i
b110011 q
b110011 t
b1001000 0
b1001000 N
b1001000 ^
b10010110011 &
b10010110011 2
b10010110011 X
b10001 W
b1001000 :
b1001000 ?
b1001000 \
b1001000 d
b1000100 9
b1000100 B
b1000100 ]
b1000100 1
b1000100 >
b1000100 @
b1000100 O
1"
#30000
0"
#30500
1+
b101 P
b101 I
b10011 i
b10011 q
b10011 t
b1001100 0
b1001100 N
b1001100 ^
b1010010011 &
b1010010011 2
b1010010011 X
b10010 W
b1001100 :
b1001100 ?
b1001100 \
b1001100 d
b1001000 9
b1001000 B
b1001000 ]
b1001000 1
b1001000 >
b1001000 @
b1001000 O
1"
#31000
0"
#31500
b1010 7
b1010 L
b1010 f
b1010 5
b1010 b
b1010 c
b10 S
0#
b1010 ;
b1010 F
b1010 _
b1010 -
b1010 C
b1010 [
b1010 4
b1010 A
b1010 R
b1010 Z
b10100000000000110 P
b110 I
b1010 H
b1010000 0
b1010000 N
b1010000 ^
b101000000000001100010011 &
b101000000000001100010011 2
b101000000000001100010011 X
b10011 W
b1010000 :
b1010000 ?
b1010000 \
b1010000 d
b1010110 9
b1010110 B
b1010110 ]
b1001100 1
b1001100 >
b1001100 @
b1001100 O
1"
#32000
0"
