Procesador RV32I/rv32i_tb.vcd
$date
	Fri Nov 08 18:14:36 2024
$end
$version
	Icarus Verilog
$end
$timescale
	1ps
$end
$scope module rv32i_tb $end
$var parameter 32 ! DURATION $end
$var reg 1 " clk $end
$scope module UUT $end
$var wire 1 " clk $end
$var wire 1 # zero $end
$var wire 1 $ regWrite $end
$var wire 1 % pcSrc $end
$var wire 32 & instruccion [31:0] $end
$var wire 2 ' immSrc [1:0] $end
$var wire 1 ( branch $end
$var wire 2 ) ResultSrc [1:0] $end
$var wire 1 * MemWrite $end
$var wire 1 + ALUsrc $end
$var wire 3 , ALUControl [2:0] $end
$scope module u_datapath $end
$var wire 1 " clk $end
$var wire 1 # zero $end
$var wire 32 - srcB [31:0] $end
$var wire 32 . rd2 [31:0] $end
$var wire 32 / rd1 [31:0] $end
$var wire 32 0 pcNext [31:0] $end
$var wire 32 1 pc [31:0] $end
$var wire 32 2 instruccion [31:0] $end
$var wire 2 3 immSrc [1:0] $end
$var wire 32 4 immExt [31:0] $end
$var wire 32 5 Result_mux1 [31:0] $end
$var wire 2 6 ResultSrc [1:0] $end
$var wire 32 7 Result [31:0] $end
$var wire 1 $ RegWrite $end
$var wire 32 8 ReadData [31:0] $end
$var wire 32 9 PCTarget [31:0] $end
$var wire 1 % PCSrc $end
$var wire 32 : PCPlus4 [31:0] $end
$var wire 1 * MemWrite $end
$var wire 1 + ALUsrc $end
$var wire 32 ; ALUResult [31:0] $end
$var wire 3 < ALUControl [2:0] $end
$scope module adder_contador_programa $end
$var wire 32 = op2 [31:0] $end
$var wire 32 > op1 [31:0] $end
$var reg 32 ? res [31:0] $end
$upscope $end
$scope module adder_ext $end
$var wire 32 @ op2 [31:0] $end
$var wire 32 A op1 [31:0] $end
$var reg 32 B res [31:0] $end
$upscope $end
$scope module alu $end
$var wire 32 C srcB [31:0] $end
$var wire 32 D srcA [31:0] $end
$var wire 3 E ALUControl [2:0] $end
$var reg 32 F result [31:0] $end
$var reg 1 # zero $end
$upscope $end
$scope module banco_registros $end
$var wire 5 G a1 [4:0] $end
$var wire 5 H a2 [4:0] $end
$var wire 5 I a3 [4:0] $end
$var wire 1 " clk $end
$var wire 32 J rd1 [31:0] $end
$var wire 32 K rd2 [31:0] $end
$var wire 1 $ we $end
$var wire 32 L wd3 [31:0] $end
$upscope $end
$scope module contador_programa $end
$var wire 1 " clk $end
$var wire 32 M pcNext [31:0] $end
$var reg 32 N pc [31:0] $end
$upscope $end
$scope module ext $end
$var wire 25 O inm [24:0] $end
$var wire 2 P src [1:0] $end
$var reg 32 Q inmExt [31:0] $end
$upscope $end
$scope module memoria_datos $end
$var wire 5 R addresDM [4:0] $end
$var wire 1 " clk $end
$var wire 32 S rd [31:0] $end
$var wire 32 T wd [31:0] $end
$var wire 1 * we $end
$var integer 32 U i [31:0] $end
$upscope $end
$scope module memoria_instruccion $end
$var wire 5 V addresIM [4:0] $end
$var wire 32 W inst [31:0] $end
$upscope $end
$scope module mux_alu $end
$var wire 32 X e1 [31:0] $end
$var wire 32 Y e2 [31:0] $end
$var wire 1 + sel $end
$var reg 32 Z salMux [31:0] $end
$upscope $end
$scope module mux_contador_programa $end
$var wire 32 [ e1 [31:0] $end
$var wire 32 \ e2 [31:0] $end
$var wire 1 % sel $end
$var reg 32 ] salMux [31:0] $end
$upscope $end
$scope module mux_memoria_datos_1 $end
$var wire 32 ^ e1 [31:0] $end
$var wire 32 _ e2 [31:0] $end
$var wire 1 ` sel $end
$var reg 32 a salMux [31:0] $end
$upscope $end
$scope module mux_memoria_datos_2 $end
$var wire 32 b e1 [31:0] $end
$var wire 32 c e2 [31:0] $end
$var wire 1 d sel $end
$var reg 32 e salMux [31:0] $end
$upscope $end
$upscope $end
$scope module unidad_control $end
$var wire 1 % PCSrc $end
$var wire 3 f f3 [2:0] $end
$var wire 7 g f7 [6:0] $end
$var wire 7 h op [6:0] $end
$var wire 1 # zero $end
$var wire 1 $ regWrite $end
$var wire 1 * memWrite $end
$var wire 1 i jump $end
$var wire 2 j immSrc [1:0] $end
$var wire 1 ( branch $end
$var wire 1 + aluSrc $end
$var wire 2 k ResultSrc [1:0] $end
$var wire 3 l ALUcontrol [2:0] $end
$var wire 2 m ALUOp_wire [1:0] $end
$scope module alu_decoder $end
$var wire 3 n f3 [2:0] $end
$var wire 7 o f7 [6:0] $end
$var wire 7 p op [6:0] $end
$var wire 2 q aluOp [1:0] $end
$var reg 3 r aluControl [2:0] $end
$upscope $end
$scope module main_decoder $end
$var wire 7 s op [6:0] $end
$var reg 2 t ALUOp [1:0] $end
$var reg 1 + ALUSrc $end
$var reg 1 i Jump $end
$var reg 2 u ResultSrc [1:0] $end
$var reg 1 ( branch $end
$var reg 2 v immSrc [1:0] $end
$var reg 1 * memWrite $end
$var reg 1 $ regWrite $end
$upscope $end
$upscope $end
$upscope $end
$upscope $end
$enddefinitions $end
$comment Show the parameter values. $end
$dumpall
b101110111000 !
$end
#0
$dumpvars
b0 v
b0 u
b10 t
b10011 s
b0 r
b10 q
b10011 p
b0 o
b0 n
b10 m
b0 l
b0 k
b0 j
0i
b10011 h
b0 g
b0 f
b11 e
0d
b100 c
b11 b
b11 a
0`
b0 _
b11 ^
b100 ]
b11 \
b100 [
b11 Z
b11 Y
b0 X
b1100000000010000010011 W
b0 V
b100000 U
b0 T
b0 S
b0 R
b11 Q
b0 P
b110000000001000 O
b0 N
b100 M
b11 L
b0 K
b0 J
b1000 I
b11 H
b0 G
b11 F
b0 E
b0 D
b11 C
b11 B
b11 A
b0 @
b100 ?
b0 >
b100 =
b0 <
b11 ;
b100 :
b11 9
b0 8
b11 7
b0 6
b11 5
b11 4
b0 3
b1100000000010000010011 2
b0 1
b100 0
b0 /
b0 .
b11 -
b0 ,
1+
0*
b0 )
0(
b0 '
b1100000000010000010011 &
0%
1$
0#
0"
$end
#500
b1 7
b1 L
b1 e
b1 5
b1 a
b1 b
b1 ;
b1 F
b1 ^
b1 -
b1 C
b1 Z
b1 4
b1 A
b1 Q
b1 Y
b10000000001001 O
b1001 I
b1 H
b1000 0
b1000 M
b1000 ]
b100000000010010010011 &
b100000000010010010011 2
b100000000010010010011 W
b1 V
b1000 :
b1000 ?
b1000 [
b1000 c
b101 9
b101 B
b101 \
b100 1
b100 >
b100 @
b100 N
1"
#1000
0"
#1500
b10000 7
b10000 L
b10000 e
b10000 5
b10000 a
b10000 b
b100 R
b10000 ;
b10000 F
b10000 ^
b10000 -
b10000 C
b10000 Z
b10000 4
b10000 A
b10000 Q
b10000 Y
b100000000000010010 O
b10010 I
b10000 H
b1100 0
b1100 M
b1100 ]
b1000000000000100100010011 &
b1000000000000100100010011 2
b1000000000000100100010011 W
b10 V
b1100 :
b1100 ?
b1100 [
b1100 c
b11000 9
b11000 B
b11000 \
b1000 1
b1000 >
b1000 @
b1000 N
1"
#2000
0"
#2500
b0 R
b11 7
b11 L
b11 e
b11 5
b11 a
b11 b
b0 4
b0 A
b0 Q
b0 Y
b1 -
b1 C
b1 Z
b11 ;
b11 F
b11 ^
b11 ,
b11 <
b11 E
b11 l
b11 r
0+
bx '
bx 3
bx P
bx j
bx v
b10010100011000101 O
b101 I
b1 .
b1 K
b1 T
b1 X
b1001 H
b11 /
b11 D
b11 J
b1000 G
b110 f
b110 n
b110011 h
b110011 p
b110011 s
b10000 0
b10000 M
b10000 ]
b100101000110001010110011 &
b100101000110001010110011 2
b100101000110001010110011 W
b11 V
b10000 :
b10000 ?
b10000 [
b10000 c
b1100 9
b1100 B
b1100 \
b1100 1
b1100 >
b1100 @
b1100 N
1"
#3000
0"
#3500
b1 7
b1 L
b1 e
b1 5
b1 a
b1 b
b1 ;
b1 F
b1 ^
b10 ,
b10 <
b10 E
b10 l
b10 r
b10010100011100110 O
b110 I
b111 f
b111 n
b10100 0
b10100 M
b10100 ]
b100101000111001100110011 &
b100101000111001100110011 2
b100101000111001100110011 W
b100 V
b10100 :
b10100 ?
b10100 [
b10100 c
b10000 9
b10000 B
b10000 \
b10000 1
b10000 >
b10000 @
b10000 N
1"
#4000
0"
#4500
b100 7
b100 L
b100 e
b100 5
b100 a
b100 b
b1 R
b100 ;
b100 F
b100 ^
b0 ,
b0 <
b0 E
b0 l
b0 r
b10010100000000111 O
b111 I
b0 f
b0 n
b11000 0
b11000 M
b11000 ]
b100101000000001110110011 &
b100101000000001110110011 2
b100101000000001110110011 W
b101 V
b11000 :
b11000 ?
b11000 [
b11000 c
b10100 9
b10100 B
b10100 \
b10100 1
b10100 >
b10100 @
b10100 N
1"
#5000
0"
#5500
b10 7
b10 L
b10 e
b10 5
b10 a
b10 b
b0 R
b10 ;
b10 F
b10 ^
b1 ,
b1 <
b1 E
b1 l
b1 r
b100000010010100000011100 O
b11100 I
b100000 g
b100000 o
b11100 0
b11100 M
b11100 ]
b1000000100101000000111000110011 &
b1000000100101000000111000110011 2
b1000000100101000000111000110011 W
b110 V
b11100 :
b11100 ?
b11100 [
b11100 c
b11000 9
b11000 B
b11000 \
b11000 1
b11000 >
b11000 @
b11000 N
1"
#6000
0"
#6500
b11111 R
b11111111111111111111111111111110 7
b11111111111111111111111111111110 L
b11111111111111111111111111111110 e
b11111111111111111111111111111110 5
b11111111111111111111111111111110 a
b11111111111111111111111111111110 b
b11 -
b11 C
b11 Z
0#
b11111111111111111111111111111110 ;
b11111111111111111111111111111110 F
b11111111111111111111111111111110 ^
b100000010000100100011101 O
b11101 I
b11 .
b11 K
b11 T
b11 X
b1000 H
b1 /
b1 D
b1 J
b1001 G
b100000 0
b100000 M
b100000 ]
b1000000100001001000111010110011 &
b1000000100001001000111010110011 2
b1000000100001001000111010110011 W
b111 V
b100000 :
b100000 ?
b100000 [
b100000 c
b11100 9
b11100 B
b11100 \
b11100 1
b11100 >
b11100 @
b11100 N
1"
#7000
0"
#7500
b0 7
b0 L
b0 e
b0 5
b0 a
b0 b
b0 R
b1 -
b1 C
b1 Z
1#
b0 ;
b0 F
b0 ^
b101 ,
b101 <
b101 E
b101 l
b101 r
b10010100001011110 O
b11110 I
b1 .
b1 K
b1 T
b1 X
b1001 H
b11 /
b11 D
b11 J
b1000 G
b0 g
b0 o
b10 f
b10 n
b100100 0
b100100 M
b100100 ]
b100101000010111100110011 &
b100101000010111100110011 2
b100101000010111100110011 W
b1000 V
b100100 :
b100100 ?
b100100 [
b100100 c
b100000 9
b100000 B
b100000 \
b100000 1
b100000 >
b100000 @
b100000 N
1"
#8000
0"
#8500
b1 7
b1 L
b1 e
b1 5
b1 a
b1 b
0#
b1 ;
b1 F
b1 ^
b11 -
b11 C
b11 Z
b10000100101011111 O
b11111 I
b11 .
b11 K
b11 T
b11 X
b1000 H
b1 /
b1 D
b1 J
b1001 G
b101000 0
b101000 M
b101000 ]
b100001001010111110110011 &
b100001001010111110110011 2
b100001001010111110110011 W
b1001 V
b101000 :
b101000 ?
b101000 [
b101000 c
b100100 9
b100100 B
b100100 \
b100100 1
b100100 >
b100100 @
b100100 N
1"
#9000
0"
#9500
b0 7
b0 L
b0 e
b0 5
b0 a
b0 b
1#
b0 ;
b0 F
b0 ^
b11111111111111111111111111111110 -
b11111111111111111111111111111110 C
b11111111111111111111111111111110 Z
b111010100101011111 O
b11111111111111111111111111111110 .
b11111111111111111111111111111110 K
b11111111111111111111111111111110 T
b11111111111111111111111111111110 X
b11101 H
b101100 0
b101100 M
b101100 ]
b1110101001010111110110011 &
b1110101001010111110110011 2
b1110101001010111110110011 W
b1010 V
b101100 :
b101100 ?
b101100 [
b101100 c
b101000 9
b101000 B
b101000 \
b101000 1
b101000 >
b101000 @
b101000 N
1"
#10000
0"
#10500
b1 7
b1 L
b1 e
b1 5
b1 a
b1 b
b0 R
b1 4
b1 A
b1 Q
b1 Y
b1 -
b1 C
b1 Z
0#
b1 ;
b1 F
b1 ^
b0 ,
b0 <
b0 E
b0 l
b0 r
1+
b0 '
b0 3
b0 P
b0 j
b0 v
b10000000000101 O
b101 I
b0 .
b0 K
b0 T
b0 X
b1 H
b0 /
b0 D
b0 J
b0 G
b0 f
b0 n
b10011 h
b10011 p
b10011 s
b110000 0
b110000 M
b110000 ]
b100000000001010010011 &
b100000000001010010011 2
b100000000001010010011 W
b1011 V
b110000 :
b110000 ?
b110000 [
b110000 c
b101101 9
b101101 B
b101101 \
b101100 1
b101100 >
b101100 @
b101100 N
1"
#11000
0"
#11500
b0 7
b0 L
b0 e
b0 5
b0 a
b0 b
1#
b0 ;
b0 F
b0 ^
b0 -
b0 C
b0 Z
b0 4
b0 A
b0 Q
b0 Y
b110 O
b110 I
b0 H
b110100 0
b110100 M
b110100 ]
b1100010011 &
b1100010011 2
b1100010011 W
b1100 V
b110100 :
b110100 ?
b110100 [
b110100 c
b110000 9
b110000 B
b110000 \
b110000 1
b110000 >
b110000 @
b110000 N
1"
#12000
0"
#12500
b11100 R
b11111111111111111111111111110001 7
b11111111111111111111111111110001 L
b11111111111111111111111111110001 e
b11111111111111111111111111110001 5
b11111111111111111111111111110001 a
b11111111111111111111111111110001 b
b1 ,
b1 <
b1 E
b1 l
b1 r
x`
b10000 4
b10000 A
b10000 Q
b10000 Y
b10000 -
b10000 C
b10000 Z
0#
b11111111111111111111111111110001 ;
b11111111111111111111111111110001 F
b11111111111111111111111111110001 ^
b1 m
b1 q
b1 t
1(
b0x )
b0x 6
b0x k
b0x u
0+
b10 '
b10 3
b10 P
b10 j
b10 v
0$
b100100010100010000 O
b10000 I
b10000 .
b10000 K
b10000 T
b10000 X
b10010 H
b1 /
b1 D
b1 J
b101 G
b1100011 h
b1100011 p
b1100011 s
b111000 0
b111000 M
b111000 ]
b1001000101000100001100011 &
b1001000101000100001100011 2
b1001000101000100001100011 W
b1101 V
b111000 :
b111000 ?
b111000 [
b111000 c
b1000100 9
b1000100 B
b1000100 \
b110100 1
b110100 >
b110100 @
b110100 N
1"
#13000
0"
#13500
b10 7
b10 L
b10 e
b0 R
b10 5
b10 a
b10 b
b10 ;
b10 F
b10 ^
b0 ,
b0 <
b0 E
b0 l
b0 r
0`
b0 4
b0 A
b0 Q
b0 Y
b1 -
b1 C
b1 Z
b10 m
b10 q
b10 t
0(
b0 )
b0 6
b0 k
b0 u
bx '
bx 3
bx P
bx j
bx v
1$
b1010010100000101 O
b101 I
b1 .
b1 K
b1 T
b1 X
b101 H
b110011 h
b110011 p
b110011 s
b111100 0
b111100 M
b111100 ]
b10100101000001010110011 &
b10100101000001010110011 2
b10100101000001010110011 W
b1110 V
b111100 :
b111100 ?
b111100 [
b111100 c
b111000 9
b111000 B
b111000 \
b111000 1
b111000 >
b111000 @
b111000 N
1"
#14000
0"
#14500
b1 7
b1 L
b1 e
0#
b1 5
b1 a
b1 b
b1 4
b1 A
b1 Q
b1 Y
b1 -
b1 C
b1 Z
b1 ;
b1 F
b1 ^
1+
b0 '
b0 3
b0 P
b0 j
b0 v
b10011000000110 O
b110 I
b0 .
b0 K
b0 T
b0 X
b1 H
b0 /
b0 D
b0 J
b110 G
b10011 h
b10011 p
b10011 s
b1000000 0
b1000000 M
b1000000 ]
b100110000001100010011 &
b100110000001100010011 2
b100110000001100010011 W
b1111 V
b1000000 :
b1000000 ?
b1000000 [
b1000000 c
b111101 9
b111101 B
b111101 \
b111100 1
b111100 >
b111100 @
b111100 N
1"
#15000
0"
#15500
b0 5
b0 a
b0 b
b1000100 7
b1000100 L
b1000100 e
1#
b0 ;
b0 F
b0 ^
1%
1d
b0 -
b0 C
b0 Z
b11111111111111111111111111110100 4
b11111111111111111111111111110100 A
b11111111111111111111111111110100 Q
b11111111111111111111111111110100 Y
1i
bx m
bx q
bx t
b10 )
b10 6
b10 k
b10 u
x+
b11 '
b11 3
b11 P
b11 j
b11 v
b1111111101011111111100000 O
b0 I
b10101 H
b11111 G
b1111111 g
b1111111 o
b111 f
b111 n
b1101111 h
b1101111 p
b1101111 s
b110100 0
b110100 M
b110100 ]
b11111111010111111111000001101111 &
b11111111010111111111000001101111 2
b11111111010111111111000001101111 W
b10000 V
b1000100 :
b1000100 ?
b1000100 [
b1000100 c
b110100 9
b110100 B
b110100 \
b1000000 1
b1000000 >
b1000000 @
b1000000 N
1"
#16000
0"
#16500
b11100 R
b11111111111111111111111111110010 5
b11111111111111111111111111110010 a
b11111111111111111111111111110010 b
0%
0d
x`
b10000 4
b10000 A
b10000 Q
b10000 Y
b10000 -
b10000 C
b10000 Z
0#
b11111111111111111111111111110010 ;
b11111111111111111111111111110010 F
b11111111111111111111111111110010 ^
b1 ,
b1 <
b1 E
b1 l
b1 r
0i
b1 m
b1 q
b1 t
1(
b0x )
b0x 6
b0x k
b0x u
0+
b10 '
b10 3
b10 P
b10 j
b10 v
0$
b100100010100010000 O
b10000 I
b10000 .
b10000 K
b10000 T
b10000 X
b10010 H
b10 /
b10 D
b10 J
b101 G
b0 g
b0 o
b0 f
b0 n
b1100011 h
b1100011 p
b1100011 s
b11111111111111111111111111110010 7
b11111111111111111111111111110010 L
b11111111111111111111111111110010 e
b111000 0
b111000 M
b111000 ]
b1001000101000100001100011 &
b1001000101000100001100011 2
b1001000101000100001100011 W
b1101 V
b111000 :
b111000 ?
b111000 [
b111000 c
b1000100 9
b1000100 B
b1000100 \
b110100 1
b110100 >
b110100 @
b110100 N
1"
#17000
0"
#17500
b100 7
b100 L
b100 e
b1 R
b100 5
b100 a
b100 b
b100 ;
b100 F
b100 ^
b0 ,
b0 <
b0 E
b0 l
b0 r
0`
b0 4
b0 A
b0 Q
b0 Y
b10 -
b10 C
b10 Z
b10 m
b10 q
b10 t
0(
b0 )
b0 6
b0 k
b0 u
bx '
bx 3
bx P
bx j
bx v
1$
b1010010100000101 O
b101 I
b10 .
b10 K
b10 T
b10 X
b101 H
b110011 h
b110011 p
b110011 s
b111100 0
b111100 M
b111100 ]
b10100101000001010110011 &
b10100101000001010110011 2
b10100101000001010110011 W
b1110 V
b111100 :
b111100 ?
b111100 [
b111100 c
b111000 9
b111000 B
b111000 \
b111000 1
b111000 >
b111000 @
b111000 N
1"
#18000
0"
#18500
b10 7
b10 L
b10 e
b10 5
b10 a
b10 b
b0 R
b1 4
b1 A
b1 Q
b1 Y
b1 -
b1 C
b1 Z
b10 ;
b10 F
b10 ^
1+
b0 '
b0 3
b0 P
b0 j
b0 v
b10011000000110 O
b110 I
b0 .
b0 K
b0 T
b0 X
b1 H
b1 /
b1 D
b1 J
b110 G
b10011 h
b10011 p
b10011 s
b1000000 0
b1000000 M
b1000000 ]
b100110000001100010011 &
b100110000001100010011 2
b100110000001100010011 W
b1111 V
b1000000 :
b1000000 ?
b1000000 [
b1000000 c
b111101 9
b111101 B
b111101 \
b111100 1
b111100 >
b111100 @
b111100 N
1"
#19000
0"
#19500
b1000100 7
b1000100 L
b1000100 e
1#
b0 5
b0 a
b0 b
1%
1d
b0 -
b0 C
b0 Z
b11111111111111111111111111110100 4
b11111111111111111111111111110100 A
b11111111111111111111111111110100 Q
b11111111111111111111111111110100 Y
b0 ;
b0 F
b0 ^
1i
bx m
bx q
bx t
b10 )
b10 6
b10 k
b10 u
x+
b11 '
b11 3
b11 P
b11 j
b11 v
b1111111101011111111100000 O
b0 I
b10101 H
b0 /
b0 D
b0 J
b11111 G
b1111111 g
b1111111 o
b111 f
b111 n
b1101111 h
b1101111 p
b1101111 s
b110100 0
b110100 M
b110100 ]
b11111111010111111111000001101111 &
b11111111010111111111000001101111 2
b11111111010111111111000001101111 W
b10000 V
b1000100 :
b1000100 ?
b1000100 [
b1000100 c
b110100 9
b110100 B
b110100 \
b1000000 1
b1000000 >
b1000000 @
b1000000 N
1"
#20000
0"
#20500
b11111111111111111111111111110100 5
b11111111111111111111111111110100 a
b11111111111111111111111111110100 b
b11101 R
0%
0d
x`
b10000 4
b10000 A
b10000 Q
b10000 Y
b10000 -
b10000 C
b10000 Z
0#
b11111111111111111111111111110100 ;
b11111111111111111111111111110100 F
b11111111111111111111111111110100 ^
b1 ,
b1 <
b1 E
b1 l
b1 r
0i
b1 m
b1 q
b1 t
1(
b0x )
b0x 6
b0x k
b0x u
0+
b10 '
b10 3
b10 P
b10 j
b10 v
0$
b100100010100010000 O
b10000 I
b10000 .
b10000 K
b10000 T
b10000 X
b10010 H
b100 /
b100 D
b100 J
b101 G
b0 g
b0 o
b0 f
b0 n
b1100011 h
b1100011 p
b1100011 s
b11111111111111111111111111110100 7
b11111111111111111111111111110100 L
b11111111111111111111111111110100 e
b111000 0
b111000 M
b111000 ]
b1001000101000100001100011 &
b1001000101000100001100011 2
b1001000101000100001100011 W
b1101 V
b111000 :
b111000 ?
b111000 [
b111000 c
b1000100 9
b1000100 B
b1000100 \
b110100 1
b110100 >
b110100 @
b110100 N
1"
#21000
0"
#21500
b1000 7
b1000 L
b1000 e
b10 R
b1000 5
b1000 a
b1000 b
b1000 ;
b1000 F
b1000 ^
b0 ,
b0 <
b0 E
b0 l
b0 r
0`
b0 4
b0 A
b0 Q
b0 Y
b100 -
b100 C
b100 Z
b10 m
b10 q
b10 t
0(
b0 )
b0 6
b0 k
b0 u
bx '
bx 3
bx P
bx j
bx v
1$
b1010010100000101 O
b101 I
b100 .
b100 K
b100 T
b100 X
b101 H
b110011 h
b110011 p
b110011 s
b111100 0
b111100 M
b111100 ]
b10100101000001010110011 &
b10100101000001010110011 2
b10100101000001010110011 W
b1110 V
b111100 :
b111100 ?
b111100 [
b111100 c
b111000 9
b111000 B
b111000 \
b111000 1
b111000 >
b111000 @
b111000 N
1"
#22000
0"
#22500
b11 7
b11 L
b11 e
b11 5
b11 a
b11 b
b0 R
b1 4
b1 A
b1 Q
b1 Y
b1 -
b1 C
b1 Z
b11 ;
b11 F
b11 ^
1+
b0 '
b0 3
b0 P
b0 j
b0 v
b10011000000110 O
b110 I
b0 .
b0 K
b0 T
b0 X
b1 H
b10 /
b10 D
b10 J
b110 G
b10011 h
b10011 p
b10011 s
b1000000 0
b1000000 M
b1000000 ]
b100110000001100010011 &
b100110000001100010011 2
b100110000001100010011 W
b1111 V
b1000000 :
b1000000 ?
b1000000 [
b1000000 c
b111101 9
b111101 B
b111101 \
b111100 1
b111100 >
b111100 @
b111100 N
1"
#23000
0"
#23500
b1000100 7
b1000100 L
b1000100 e
1#
b0 5
b0 a
b0 b
1%
1d
b0 -
b0 C
b0 Z
b11111111111111111111111111110100 4
b11111111111111111111111111110100 A
b11111111111111111111111111110100 Q
b11111111111111111111111111110100 Y
b0 ;
b0 F
b0 ^
1i
bx m
bx q
bx t
b10 )
b10 6
b10 k
b10 u
x+
b11 '
b11 3
b11 P
b11 j
b11 v
b1111111101011111111100000 O
b0 I
b10101 H
b0 /
b0 D
b0 J
b11111 G
b1111111 g
b1111111 o
b111 f
b111 n
b1101111 h
b1101111 p
b1101111 s
b110100 0
b110100 M
b110100 ]
b11111111010111111111000001101111 &
b11111111010111111111000001101111 2
b11111111010111111111000001101111 W
b10000 V
b1000100 :
b1000100 ?
b1000100 [
b1000100 c
b110100 9
b110100 B
b110100 \
b1000000 1
b1000000 >
b1000000 @
b1000000 N
1"
#24000
0"
#24500
b11111111111111111111111111111000 5
b11111111111111111111111111111000 a
b11111111111111111111111111111000 b
b11110 R
0%
0d
x`
b10000 4
b10000 A
b10000 Q
b10000 Y
b10000 -
b10000 C
b10000 Z
0#
b11111111111111111111111111111000 ;
b11111111111111111111111111111000 F
b11111111111111111111111111111000 ^
b1 ,
b1 <
b1 E
b1 l
b1 r
0i
b1 m
b1 q
b1 t
1(
b0x )
b0x 6
b0x k
b0x u
0+
b10 '
b10 3
b10 P
b10 j
b10 v
0$
b100100010100010000 O
b10000 I
b10000 .
b10000 K
b10000 T
b10000 X
b10010 H
b1000 /
b1000 D
b1000 J
b101 G
b0 g
b0 o
b0 f
b0 n
b1100011 h
b1100011 p
b1100011 s
b11111111111111111111111111111000 7
b11111111111111111111111111111000 L
b11111111111111111111111111111000 e
b111000 0
b111000 M
b111000 ]
b1001000101000100001100011 &
b1001000101000100001100011 2
b1001000101000100001100011 W
b1101 V
b111000 :
b111000 ?
b111000 [
b111000 c
b1000100 9
b1000100 B
b1000100 \
b110100 1
b110100 >
b110100 @
b110100 N
1"
#25000
0"
#25500
b10000 7
b10000 L
b10000 e
b100 R
b10000 5
b10000 a
b10000 b
b10000 ;
b10000 F
b10000 ^
b0 ,
b0 <
b0 E
b0 l
b0 r
0`
b0 4
b0 A
b0 Q
b0 Y
b1000 -
b1000 C
b1000 Z
b10 m
b10 q
b10 t
0(
b0 )
b0 6
b0 k
b0 u
bx '
bx 3
bx P
bx j
bx v
1$
b1010010100000101 O
b101 I
b1000 .
b1000 K
b1000 T
b1000 X
b101 H
b110011 h
b110011 p
b110011 s
b111100 0
b111100 M
b111100 ]
b10100101000001010110011 &
b10100101000001010110011 2
b10100101000001010110011 W
b1110 V
b111100 :
b111100 ?
b111100 [
b111100 c
b111000 9
b111000 B
b111000 \
b111000 1
b111000 >
b111000 @
b111000 N
1"
#26000
0"
#26500
b100 7
b100 L
b100 e
b100 5
b100 a
b100 b
b1 R
b1 4
b1 A
b1 Q
b1 Y
b1 -
b1 C
b1 Z
b100 ;
b100 F
b100 ^
1+
b0 '
b0 3
b0 P
b0 j
b0 v
b10011000000110 O
b110 I
b0 .
b0 K
b0 T
b0 X
b1 H
b11 /
b11 D
b11 J
b110 G
b10011 h
b10011 p
b10011 s
b1000000 0
b1000000 M
b1000000 ]
b100110000001100010011 &
b100110000001100010011 2
b100110000001100010011 W
b1111 V
b1000000 :
b1000000 ?
b1000000 [
b1000000 c
b111101 9
b111101 B
b111101 \
b111100 1
b111100 >
b111100 @
b111100 N
1"
#27000
0"
#27500
b1000100 7
b1000100 L
b1000100 e
1#
b0 5
b0 a
b0 b
b0 R
1%
1d
b0 -
b0 C
b0 Z
b11111111111111111111111111110100 4
b11111111111111111111111111110100 A
b11111111111111111111111111110100 Q
b11111111111111111111111111110100 Y
b0 ;
b0 F
b0 ^
1i
bx m
bx q
bx t
b10 )
b10 6
b10 k
b10 u
x+
b11 '
b11 3
b11 P
b11 j
b11 v
b1111111101011111111100000 O
b0 I
b10101 H
b0 /
b0 D
b0 J
b11111 G
b1111111 g
b1111111 o
b111 f
b111 n
b1101111 h
b1101111 p
b1101111 s
b110100 0
b110100 M
b110100 ]
b11111111010111111111000001101111 &
b11111111010111111111000001101111 2
b11111111010111111111000001101111 W
b10000 V
b1000100 :
b1000100 ?
b1000100 [
b1000100 c
b110100 9
b110100 B
b110100 \
b1000000 1
b1000000 >
b1000000 @
b1000000 N
1"
#28000
0"
#28500
b0 5
b0 a
b0 b
b0 R
1%
0d
x`
b10000 4
b10000 A
b10000 Q
b10000 Y
b10000 -
b10000 C
b10000 Z
1#
b0 ;
b0 F
b0 ^
b1 ,
b1 <
b1 E
b1 l
b1 r
0i
b1 m
b1 q
b1 t
1(
b0x )
b0x 6
b0x k
b0x u
0+
b10 '
b10 3
b10 P
b10 j
b10 v
0$
b100100010100010000 O
b10000 I
b10000 .
b10000 K
b10000 T
b10000 X
b10010 H
b10000 /
b10000 D
b10000 J
b101 G
b0 g
b0 o
b0 f
b0 n
b1100011 h
b1100011 p
b1100011 s
b0 7
b0 L
b0 e
b1000100 0
b1000100 M
b1000100 ]
b1001000101000100001100011 &
b1001000101000100001100011 2
b1001000101000100001100011 W
b1101 V
b111000 :
b111000 ?
b111000 [
b111000 c
b1000100 9
b1000100 B
b1000100 \
b110100 1
b110100 >
b110100 @
b110100 N
1"
#29000
0"
#29500
b0 7
b0 L
b0 e
0%
b0 5
b0 a
b0 b
b0 R
b0 ,
b0 <
b0 E
b0 l
b0 r
0`
b0 4
b0 A
b0 Q
b0 Y
b0 -
b0 C
b0 Z
1#
b0 ;
b0 F
b0 ^
b10 m
b10 q
b10 t
0(
b0 )
b0 6
b0 k
b0 u
bx '
bx 3
bx P
bx j
bx v
1$
b1001 O
b1001 I
b0 .
b0 K
b0 T
b0 X
b0 H
b0 /
b0 D
b0 J
b0 G
b110011 h
b110011 p
b110011 s
b1001000 0
b1001000 M
b1001000 ]
b10010110011 &
b10010110011 2
b10010110011 W
b10001 V
b1001000 :
b1001000 ?
b1001000 [
b1001000 c
b1000100 9
b1000100 B
b1000100 \
b1000100 1
b1000100 >
b1000100 @
b1000100 N
1"
#30000
0"
#30500
1+
b0 '
b0 3
b0 P
b0 j
b0 v
b101 O
b101 I
b10011 h
b10011 p
b10011 s
b1001100 0
b1001100 M
b1001100 ]
b1010010011 &
b1010010011 2
b1010010011 W
b10010 V
b1001100 :
b1001100 ?
b1001100 [
b1001100 c
b1001000 9
b1001000 B
b1001000 \
b1001000 1
b1001000 >
b1001000 @
b1001000 N
1"
#31000
0"
#31500
b1010 7
b1010 L
b1010 e
b1010 5
b1010 a
b1010 b
b10 R
0#
b1010 ;
b1010 F
b1010 ^
b1010 -
b1010 C
b1010 Z
b1010 4
b1010 A
b1010 Q
b1010 Y
b10100000000000110 O
b110 I
b1010 H
b1010000 0
b1010000 M
b1010000 ]
b101000000000001100010011 &
b101000000000001100010011 2
b101000000000001100010011 W
b10011 V
b1010000 :
b1010000 ?
b1010000 [
b1010000 c
b1010110 9
b1010110 B
b1010110 \
b1001100 1
b1001100 >
b1001100 @
b1001100 N
1"
#32000
0"
